jMRUI Data Textfile

Filename: megapress/MPsum_full.txt

PointsInDataset: 2080
DatasetsInFile: 1
SamplingInterval: 4.167000E-01
ZeroOrderPhase: 0E+00
BeginTime: 0E+00
TransmitterFrequency: 1.232471E+08
MagneticField: 2.893620E+00
TypeOfNucleus: 0E+00
NameOfPatient: No Name
DateOfExperiment: 
Spectrometer: TrioTim
AdditionalInfo: jnear


Signal and FFT
sig(real)	sig(imag)	fft(real)	fft(imag)
Signal 1 out of 1 in file
0.00000115	-0.00000233	0.00000000	0.00000000
-0.00000042	-0.00000407	0.00000000	-0.00000000
-0.00000252	-0.00000402	0.00000000	0.00000000
-0.00000470	-0.00000207	-0.00000000	0.00000000
-0.00000572	0.00000188	0.00000000	0.00000000
-0.00000347	0.00000590	0.00000000	0.00000000
0.00000156	0.00000699	0.00000000	0.00000000
0.00000619	0.00000320	0.00000000	0.00000000
0.00000623	-0.00000301	0.00000000	0.00000000
0.00000167	-0.00000697	-0.00000000	-0.00000000
-0.00000417	-0.00000534	0.00000000	-0.00000000
-0.00000668	0.00000061	0.00000000	0.00000000
-0.00000385	0.00000613	-0.00000000	-0.00000000
0.00000210	0.00000727	0.00000000	-0.00000000
0.00000665	0.00000362	0.00000000	0.00000000
0.00000698	-0.00000210	-0.00000000	0.00000000
0.00000365	-0.00000571	0.00000000	-0.00000000
-0.00000094	-0.00000581	-0.00000000	-0.00000000
-0.00000420	-0.00000315	0.00000000	0.00000000
-0.00000468	0.00000087	-0.00000000	0.00000000
-0.00000253	0.00000402	-0.00000000	-0.00000000
0.00000134	0.00000443	0.00000000	-0.00000000
0.00000418	0.00000142	0.00000000	-0.00000000
0.00000353	-0.00000282	-0.00000000	-0.00000000
-0.00000080	-0.00000473	-0.00000000	0.00000000
-0.00000535	-0.00000209	0.00000000	-0.00000000
-0.00000645	0.00000384	-0.00000000	0.00000000
-0.00000232	0.00000917	0.00000000	-0.00000000
0.00000473	0.00000979	0.00000000	-0.00000000
0.00000981	0.00000507	0.00000000	-0.00000000
0.00001006	-0.00000155	0.00000000	-0.00000000
0.00000599	-0.00000644	0.00000000	0.00000000
0.00000024	-0.00000705	0.00000000	0.00000000
-0.00000403	-0.00000375	0.00000000	-0.00000000
-0.00000466	0.00000123	-0.00000000	-0.00000000
-0.00000162	0.00000506	0.00000000	0.00000000
0.00000311	0.00000585	0.00000000	-0.00000000
0.00000713	0.00000278	0.00000000	-0.00000000
0.00000758	-0.00000286	-0.00000000	0.00000000
0.00000380	-0.00000684	-0.00000000	0.00000000
-0.00000203	-0.00000642	-0.00000000	-0.00000000
-0.00000550	-0.00000198	0.00000000	0.00000000
-0.00000436	0.00000335	-0.00000000	-0.00000000
0.00000025	0.00000515	0.00000000	0.00000000
0.00000427	0.00000260	0.00000000	-0.00000000
0.00000447	-0.00000173	-0.00000000	0.00000000
0.00000130	-0.00000467	0.00000000	-0.00000000
-0.00000298	-0.00000381	-0.00000000	-0.00000000
-0.00000495	0.00000012	-0.00000000	-0.00000000
-0.00000383	0.00000415	0.00000000	-0.00000000
-0.00000042	0.00000595	-0.00000000	-0.00000000
0.00000342	0.00000477	0.00000000	0.00000000
0.00000547	0.00000145	0.00000000	0.00000000
0.00000468	-0.00000233	0.00000000	-0.00000000
0.00000138	-0.00000421	0.00000000	-0.00000000
-0.00000233	-0.00000301	0.00000000	-0.00000000
-0.00000384	0.00000076	-0.00000000	0.00000000
-0.00000207	0.00000476	-0.00000000	0.00000000
0.00000221	0.00000540	0.00000000	0.00000000
0.00000574	0.00000234	0.00000000	-0.00000000
0.00000597	-0.00000185	-0.00000000	-0.00000000
0.00000304	-0.00000443	0.00000000	-0.00000000
-0.00000032	-0.00000398	0.00000000	-0.00000000
-0.00000182	-0.00000152	0.00000000	0.00000000
-0.00000099	0.00000101	-0.00000000	-0.00000000
0.00000106	0.00000137	-0.00000000	0.00000000
0.00000271	-0.00000026	-0.00000000	0.00000000
0.00000231	-0.00000240	-0.00000000	-0.00000000
0.00000047	-0.00000382	0.00000000	-0.00000000
-0.00000214	-0.00000337	-0.00000000	0.00000000
-0.00000400	-0.00000077	-0.00000000	-0.00000000
-0.00000352	0.00000245	0.00000000	-0.00000000
-0.00000015	0.00000469	-0.00000000	-0.00000000
0.00000406	0.00000406	-0.00000000	0.00000000
0.00000656	-0.00000001	0.00000000	-0.00000000
0.00000530	-0.00000517	-0.00000000	-0.00000000
0.00000067	-0.00000797	0.00000000	-0.00000000
-0.00000424	-0.00000641	-0.00000000	0.00000000
-0.00000633	-0.00000205	0.00000000	-0.00000000
-0.00000512	0.00000227	0.00000000	0.00000000
-0.00000172	0.00000417	0.00000000	0.00000000
0.00000145	0.00000344	-0.00000000	-0.00000000
0.00000281	0.00000112	-0.00000000	0.00000000
0.00000203	-0.00000053	0.00000000	0.00000000
0.00000128	-0.00000074	-0.00000000	-0.00000000
0.00000138	-0.00000031	-0.00000000	-0.00000000
0.00000273	0.00000006	-0.00000000	-0.00000000
0.00000445	-0.00000105	0.00000000	-0.00000000
0.00000492	-0.00000420	0.00000000	-0.00000000
0.00000300	-0.00000770	-0.00000000	0.00000000
-0.00000116	-0.00000942	-0.00000000	-0.00000000
-0.00000606	-0.00000798	-0.00000000	-0.00000000
-0.00000916	-0.00000320	-0.00000000	-0.00000000
-0.00000844	0.00000291	0.00000000	0.00000000
-0.00000387	0.00000670	0.00000000	0.00000000
0.00000229	0.00000671	0.00000000	0.00000000
0.00000682	0.00000262	-0.00000000	-0.00000000
0.00000730	-0.00000307	0.00000000	0.00000000
0.00000420	-0.00000702	0.00000000	0.00000000
-0.00000019	-0.00000814	0.00000000	-0.00000000
-0.00000371	-0.00000630	-0.00000000	-0.00000000
-0.00000460	-0.00000360	0.00000000	-0.00000000
-0.00000367	-0.00000181	0.00000000	-0.00000000
-0.00000250	-0.00000163	0.00000000	-0.00000000
-0.00000259	-0.00000260	0.00000000	-0.00000000
-0.00000438	-0.00000267	0.00000000	-0.00000000
-0.00000619	-0.00000071	-0.00000000	-0.00000000
-0.00000625	0.00000316	-0.00000000	0.00000000
-0.00000304	0.00000689	0.00000000	-0.00000000
0.00000268	0.00000797	0.00000000	-0.00000000
0.00000847	0.00000507	-0.00000000	-0.00000000
0.00001142	-0.00000131	-0.00000000	-0.00000000
0.00000985	-0.00000824	-0.00000000	-0.00000000
0.00000475	-0.00001242	0.00000000	-0.00000000
-0.00000152	-0.00001258	0.00000000	0.00000000
-0.00000597	-0.00000957	-0.00000000	-0.00000000
-0.00000714	-0.00000522	0.00000000	-0.00000000
-0.00000582	-0.00000207	0.00000000	-0.00000000
-0.00000327	-0.00000111	-0.00000000	-0.00000000
-0.00000150	-0.00000175	-0.00000000	-0.00000000
-0.00000093	-0.00000264	0.00000000	-0.00000000
-0.00000099	-0.00000326	0.00000000	-0.00000000
-0.00000131	-0.00000354	0.00000000	-0.00000000
-0.00000114	-0.00000345	0.00000000	0.00000000
-0.00000064	-0.00000386	-0.00000000	0.00000000
-0.00000060	-0.00000552	-0.00000000	0.00000000
-0.00000208	-0.00000729	0.00000000	-0.00000000
-0.00000505	-0.00000797	-0.00000000	0.00000000
-0.00000827	-0.00000619	-0.00000000	-0.00000000
-0.00001012	-0.00000191	0.00000000	-0.00000000
-0.00000885	0.00000281	0.00000000	-0.00000000
-0.00000470	0.00000585	0.00000000	-0.00000000
0.00000019	0.00000588	0.00000000	0.00000000
0.00000388	0.00000283	0.00000000	0.00000000
0.00000488	-0.00000122	0.00000000	0.00000000
0.00000361	-0.00000403	-0.00000000	0.00000000
0.00000180	-0.00000502	-0.00000000	-0.00000000
0.00000061	-0.00000460	0.00000000	-0.00000000
0.00000075	-0.00000406	0.00000000	0.00000000
0.00000146	-0.00000482	-0.00000000	-0.00000000
0.00000144	-0.00000657	-0.00000000	0.00000000
0.00000012	-0.00000829	0.00000000	-0.00000000
-0.00000239	-0.00000904	0.00000000	-0.00000000
-0.00000483	-0.00000771	0.00000000	0.00000000
-0.00000560	-0.00000528	0.00000000	-0.00000000
-0.00000451	-0.00000281	0.00000000	0.00000000
-0.00000208	-0.00000220	0.00000000	-0.00000000
0.00000004	-0.00000395	-0.00000000	-0.00000000
0.00000016	-0.00000685	-0.00000000	0.00000000
-0.00000210	-0.00000940	0.00000000	0.00000000
-0.00000579	-0.00000973	0.00000000	0.00000000
-0.00000899	-0.00000738	0.00000000	-0.00000000
-0.00000968	-0.00000332	-0.00000000	-0.00000000
-0.00000774	-0.00000006	0.00000000	-0.00000000
-0.00000416	0.00000122	0.00000000	-0.00000000
-0.00000137	-0.00000008	0.00000000	0.00000000
-0.00000032	-0.00000222	-0.00000000	0.00000000
-0.00000147	-0.00000413	0.00000000	0.00000000
-0.00000324	-0.00000414	-0.00000000	-0.00000000
-0.00000368	-0.00000277	0.00000000	-0.00000000
-0.00000267	-0.00000137	-0.00000000	0.00000000
-0.00000054	-0.00000127	0.00000000	-0.00000000
0.00000121	-0.00000256	0.00000000	0.00000000
0.00000110	-0.00000487	-0.00000000	-0.00000000
-0.00000021	-0.00000666	-0.00000000	0.00000000
-0.00000182	-0.00000644	0.00000000	0.00000000
-0.00000264	-0.00000519	0.00000000	-0.00000000
-0.00000147	-0.00000396	0.00000000	0.00000000
0.00000041	-0.00000431	0.00000000	0.00000000
0.00000158	-0.00000675	-0.00000000	-0.00000000
0.00000076	-0.00000991	-0.00000000	0.00000000
-0.00000236	-0.00001184	-0.00000000	-0.00000000
-0.00000664	-0.00001170	-0.00000000	0.00000000
-0.00000981	-0.00000885	0.00000000	0.00000000
-0.00001071	-0.00000436	-0.00000000	-0.00000000
-0.00000869	-0.00000034	-0.00000000	-0.00000000
-0.00000476	0.00000143	0.00000000	-0.00000000
-0.00000100	0.00000051	0.00000000	-0.00000000
0.00000114	-0.00000236	0.00000000	0.00000000
0.00000076	-0.00000513	0.00000000	-0.00000000
-0.00000091	-0.00000685	-0.00000000	0.00000000
-0.00000234	-0.00000669	0.00000000	0.00000000
-0.00000283	-0.00000569	-0.00000000	0.00000000
-0.00000212	-0.00000552	-0.00000000	-0.00000000
-0.00000167	-0.00000654	-0.00000000	0.00000000
-0.00000252	-0.00000838	0.00000000	0.00000000
-0.00000505	-0.00000902	0.00000000	-0.00000000
-0.00000803	-0.00000749	0.00000000	-0.00000000
-0.00000932	-0.00000367	0.00000000	0.00000000
-0.00000784	0.00000029	0.00000000	0.00000000
-0.00000396	0.00000246	0.00000000	-0.00000000
0.00000087	0.00000178	-0.00000000	-0.00000000
0.00000408	-0.00000170	0.00000000	-0.00000000
0.00000445	-0.00000583	-0.00000000	0.00000000
0.00000267	-0.00000941	0.00000000	0.00000000
-0.00000027	-0.00001091	0.00000000	0.00000000
-0.00000320	-0.00001059	0.00000000	0.00000000
-0.00000510	-0.00000937	0.00000000	-0.00000000
-0.00000610	-0.00000772	-0.00000000	0.00000000
-0.00000626	-0.00000640	-0.00000000	0.00000000
-0.00000591	-0.00000536	0.00000000	0.00000000
-0.00000562	-0.00000422	0.00000000	0.00000000
-0.00000489	-0.00000336	0.00000000	0.00000000
-0.00000359	-0.00000248	-0.00000000	-0.00000000
-0.00000165	-0.00000228	-0.00000000	-0.00000000
0.00000043	-0.00000392	-0.00000000	0.00000000
0.00000142	-0.00000708	0.00000000	-0.00000000
-0.00000013	-0.00001037	0.00000000	-0.00000000
-0.00000383	-0.00001212	-0.00000000	-0.00000000
-0.00000818	-0.00001098	0.00000000	-0.00000000
-0.00001124	-0.00000711	0.00000000	0.00000000
-0.00001098	-0.00000200	-0.00000000	-0.00000000
-0.00000768	0.00000173	-0.00000000	0.00000000
-0.00000328	0.00000257	0.00000000	-0.00000000
0.00000052	0.00000066	0.00000000	0.00000000
0.00000224	-0.00000245	-0.00000000	0.00000000
0.00000186	-0.00000521	0.00000000	-0.00000000
0.00000044	-0.00000664	0.00000000	-0.00000000
-0.00000044	-0.00000648	-0.00000000	-0.00000000
-0.00000003	-0.00000672	0.00000000	0.00000000
0.00000019	-0.00000773	-0.00000000	-0.00000000
-0.00000031	-0.00000964	-0.00000000	0.00000000
-0.00000222	-0.00001186	0.00000000	-0.00000000
-0.00000573	-0.00001215	-0.00000000	-0.00000000
-0.00000903	-0.00001014	0.00000000	-0.00000000
-0.00001051	-0.00000640	0.00000000	-0.00000000
-0.00000945	-0.00000253	-0.00000000	0.00000000
-0.00000603	0.00000015	0.00000000	0.00000000
-0.00000205	-0.00000008	0.00000000	-0.00000000
0.00000098	-0.00000265	-0.00000000	-0.00000000
0.00000137	-0.00000627	0.00000000	-0.00000000
-0.00000085	-0.00000924	0.00000000	-0.00000000
-0.00000400	-0.00000985	0.00000000	-0.00000000
-0.00000675	-0.00000830	-0.00000000	0.00000000
-0.00000789	-0.00000539	0.00000000	-0.00000000
-0.00000690	-0.00000292	-0.00000000	-0.00000000
-0.00000474	-0.00000187	-0.00000000	0.00000000
-0.00000327	-0.00000225	-0.00000000	0.00000000
-0.00000259	-0.00000285	-0.00000000	-0.00000000
-0.00000236	-0.00000288	0.00000000	0.00000000
-0.00000170	-0.00000257	-0.00000000	-0.00000000
-0.00000025	-0.00000255	-0.00000000	-0.00000000
0.00000170	-0.00000362	-0.00000000	-0.00000000
0.00000275	-0.00000625	0.00000000	0.00000000
0.00000188	-0.00000940	0.00000000	-0.00000000
-0.00000095	-0.00001125	0.00000000	-0.00000000
-0.00000429	-0.00001146	0.00000000	-0.00000000
-0.00000675	-0.00000949	0.00000000	0.00000000
-0.00000739	-0.00000650	0.00000000	0.00000000
-0.00000643	-0.00000440	-0.00000000	-0.00000000
-0.00000472	-0.00000368	0.00000000	-0.00000000
-0.00000329	-0.00000387	0.00000000	-0.00000000
-0.00000295	-0.00000492	-0.00000000	0.00000000
-0.00000336	-0.00000576	-0.00000000	-0.00000000
-0.00000389	-0.00000532	0.00000000	-0.00000000
-0.00000416	-0.00000457	-0.00000000	0.00000000
-0.00000367	-0.00000381	-0.00000000	-0.00000000
-0.00000241	-0.00000380	-0.00000000	-0.00000000
-0.00000156	-0.00000442	-0.00000000	-0.00000000
-0.00000158	-0.00000581	0.00000000	-0.00000000
-0.00000240	-0.00000693	-0.00000000	-0.00000000
-0.00000407	-0.00000671	-0.00000000	-0.00000000
-0.00000534	-0.00000543	0.00000000	-0.00000000
-0.00000501	-0.00000367	-0.00000000	0.00000000
-0.00000360	-0.00000242	0.00000000	-0.00000000
-0.00000163	-0.00000274	-0.00000000	-0.00000000
-0.00000071	-0.00000439	0.00000000	0.00000000
-0.00000129	-0.00000576	-0.00000000	-0.00000000
-0.00000256	-0.00000615	0.00000000	0.00000000
-0.00000359	-0.00000553	-0.00000000	-0.00000000
-0.00000350	-0.00000414	-0.00000000	-0.00000000
-0.00000217	-0.00000343	0.00000000	0.00000000
-0.00000054	-0.00000406	-0.00000000	0.00000000
0.00000003	-0.00000575	-0.00000000	0.00000000
-0.00000087	-0.00000745	0.00000000	-0.00000000
-0.00000241	-0.00000798	-0.00000000	0.00000000
-0.00000410	-0.00000719	-0.00000000	-0.00000000
-0.00000462	-0.00000573	-0.00000000	0.00000000
-0.00000397	-0.00000471	-0.00000000	-0.00000000
-0.00000292	-0.00000466	-0.00000000	-0.00000000
-0.00000271	-0.00000527	0.00000000	-0.00000000
-0.00000368	-0.00000601	-0.00000000	-0.00000000
-0.00000484	-0.00000596	0.00000000	0.00000000
-0.00000557	-0.00000452	0.00000000	0.00000000
-0.00000562	-0.00000239	-0.00000000	-0.00000000
-0.00000399	-0.00000065	-0.00000000	0.00000000
-0.00000120	-0.00000011	0.00000000	0.00000000
0.00000125	-0.00000165	-0.00000000	-0.00000000
0.00000241	-0.00000465	-0.00000000	-0.00000000
0.00000124	-0.00000770	-0.00000000	0.00000000
-0.00000150	-0.00000946	-0.00000000	-0.00000000
-0.00000463	-0.00000885	-0.00000000	-0.00000000
-0.00000668	-0.00000617	0.00000000	0.00000000
-0.00000687	-0.00000317	0.00000000	0.00000000
-0.00000494	-0.00000110	0.00000000	0.00000000
-0.00000236	-0.00000074	-0.00000000	0.00000000
-0.00000072	-0.00000190	-0.00000000	0.00000000
-0.00000038	-0.00000341	0.00000001	0.00000000
-0.00000061	-0.00000417	-0.00000000	0.00000000
-0.00000068	-0.00000437	-0.00000000	0.00000000
-0.00000041	-0.00000479	-0.00000000	0.00000000
-0.00000009	-0.00000555	-0.00000000	0.00000000
-0.00000044	-0.00000701	0.00000000	-0.00000000
-0.00000199	-0.00000813	0.00000000	-0.00000000
-0.00000427	-0.00000797	-0.00000000	0.00000000
-0.00000610	-0.00000662	0.00000000	0.00000000
-0.00000693	-0.00000397	-0.00000000	-0.00000000
-0.00000603	-0.00000120	0.00000000	-0.00000000
-0.00000378	-0.00000003	0.00000000	0.00000000
-0.00000118	-0.00000023	-0.00000000	0.00000000
0.00000067	-0.00000161	-0.00000000	0.00000000
0.00000107	-0.00000377	0.00000000	0.00000000
0.00000017	-0.00000548	0.00000000	0.00000000
-0.00000117	-0.00000616	0.00000000	-0.00000000
-0.00000215	-0.00000588	-0.00000000	0.00000000
-0.00000252	-0.00000509	0.00000000	0.00000000
-0.00000260	-0.00000458	-0.00000000	-0.00000000
-0.00000248	-0.00000472	-0.00000000	0.00000000
-0.00000304	-0.00000505	-0.00000000	-0.00000000
-0.00000399	-0.00000499	0.00000000	-0.00000000
-0.00000515	-0.00000366	0.00000000	0.00000000
-0.00000517	-0.00000179	-0.00000000	0.00000000
-0.00000359	-0.00000014	0.00000000	0.00000000
-0.00000103	0.00000049	0.00000000	0.00000000
0.00000134	-0.00000053	0.00000000	-0.00000000
0.00000248	-0.00000304	0.00000000	0.00000000
0.00000176	-0.00000574	0.00000000	-0.00000000
-0.00000009	-0.00000716	-0.00000000	0.00000000
-0.00000242	-0.00000705	-0.00000000	-0.00000000
-0.00000397	-0.00000578	0.00000000	-0.00000000
-0.00000415	-0.00000421	-0.00000000	-0.00000000
-0.00000381	-0.00000325	-0.00000000	0.00000000
-0.00000323	-0.00000292	-0.00000000	0.00000000
-0.00000295	-0.00000288	0.00000000	-0.00000000
-0.00000265	-0.00000258	0.00000000	-0.00000000
-0.00000254	-0.00000224	0.00000000	-0.00000000
-0.00000194	-0.00000185	0.00000000	0.00000000
-0.00000089	-0.00000189	-0.00000000	-0.00000000
-0.00000003	-0.00000278	-0.00000000	-0.00000000
-0.00000008	-0.00000405	-0.00000000	-0.00000000
-0.00000088	-0.00000516	0.00000000	-0.00000000
-0.00000253	-0.00000542	0.00000000	0.00000000
-0.00000396	-0.00000455	0.00000000	-0.00000000
-0.00000451	-0.00000280	0.00000000	-0.00000000
-0.00000383	-0.00000092	0.00000000	0.00000000
-0.00000192	0.00000004	-0.00000000	-0.00000000
-0.00000009	-0.00000050	0.00000000	0.00000000
0.00000113	-0.00000189	0.00000000	0.00000000
0.00000099	-0.00000353	0.00000000	0.00000000
-0.00000048	-0.00000459	-0.00000000	-0.00000000
-0.00000168	-0.00000446	-0.00000000	0.00000000
-0.00000219	-0.00000354	0.00000000	-0.00000000
-0.00000192	-0.00000279	0.00000000	0.00000000
-0.00000129	-0.00000291	0.00000000	-0.00000000
-0.00000085	-0.00000367	-0.00000000	-0.00000000
-0.00000150	-0.00000425	0.00000000	-0.00000000
-0.00000264	-0.00000444	-0.00000000	-0.00000000
-0.00000375	-0.00000369	0.00000000	0.00000000
-0.00000405	-0.00000206	-0.00000000	0.00000000
-0.00000296	-0.00000058	-0.00000000	-0.00000000
-0.00000138	-0.00000024	0.00000000	0.00000000
-0.00000022	-0.00000095	0.00000000	-0.00000000
0.00000031	-0.00000210	-0.00000000	0.00000000
-0.00000028	-0.00000347	-0.00000000	0.00000000
-0.00000142	-0.00000354	0.00000000	0.00000000
-0.00000230	-0.00000279	-0.00000000	-0.00000000
-0.00000243	-0.00000181	-0.00000000	0.00000000
-0.00000145	-0.00000080	0.00000000	0.00000000
-0.00000014	-0.00000092	-0.00000000	-0.00000000
0.00000072	-0.00000194	0.00000000	-0.00000000
0.00000035	-0.00000319	0.00000000	-0.00000000
-0.00000087	-0.00000392	-0.00000000	0.00000000
-0.00000181	-0.00000361	-0.00000000	0.00000000
-0.00000241	-0.00000272	0.00000000	0.00000000
-0.00000233	-0.00000167	-0.00000000	-0.00000001
-0.00000146	-0.00000156	0.00000000	-0.00000001
-0.00000069	-0.00000196	0.00000000	-0.00000000
-0.00000053	-0.00000250	0.00000000	-0.00000000
-0.00000107	-0.00000304	0.00000000	-0.00000000
-0.00000211	-0.00000281	0.00000000	-0.00000000
-0.00000241	-0.00000201	-0.00000000	-0.00000000
-0.00000198	-0.00000098	0.00000000	-0.00000000
-0.00000105	-0.00000068	-0.00000000	-0.00000000
-0.00000002	-0.00000123	-0.00000000	0.00000000
0.00000035	-0.00000225	0.00000000	-0.00000000
-0.00000020	-0.00000331	0.00000000	0.00000000
-0.00000130	-0.00000374	0.00000000	0.00000000
-0.00000250	-0.00000287	0.00000000	-0.00000000
-0.00000284	-0.00000147	-0.00000000	0.00000000
-0.00000215	-0.00000059	-0.00000000	-0.00000000
-0.00000111	-0.00000028	-0.00000000	0.00000000
-0.00000014	-0.00000095	0.00000000	-0.00000000
0.00000044	-0.00000184	-0.00000000	-0.00000000
-0.00000021	-0.00000250	0.00000000	0.00000000
-0.00000125	-0.00000274	0.00000000	-0.00000000
-0.00000167	-0.00000226	0.00000000	0.00000000
-0.00000176	-0.00000147	-0.00000000	-0.00000000
-0.00000141	-0.00000121	-0.00000000	0.00000000
-0.00000069	-0.00000155	-0.00000000	-0.00000000
-0.00000067	-0.00000189	0.00000000	0.00000000
-0.00000097	-0.00000208	0.00000000	0.00000000
-0.00000168	-0.00000184	-0.00000000	0.00000000
-0.00000214	-0.00000111	-0.00000000	-0.00000000
-0.00000166	-0.00000039	0.00000000	-0.00000000
-0.00000073	-0.00000001	-0.00000000	-0.00000000
0.00000033	-0.00000033	0.00000000	-0.00000000
0.00000091	-0.00000132	0.00000000	0.00000000
0.00000062	-0.00000239	0.00000001	-0.00000000
-0.00000035	-0.00000295	-0.00000000	-0.00000000
-0.00000145	-0.00000262	0.00000000	-0.00000000
-0.00000193	-0.00000195	0.00000000	-0.00000000
-0.00000171	-0.00000124	0.00000000	0.00000000
-0.00000123	-0.00000097	-0.00000000	-0.00000000
-0.00000085	-0.00000098	-0.00000000	0.00000000
-0.00000090	-0.00000129	0.00000000	-0.00000000
-0.00000149	-0.00000136	-0.00000000	-0.00000000
-0.00000165	-0.00000080	0.00000000	0.00000000
-0.00000114	-0.00000007	-0.00000000	-0.00000000
-0.00000058	0.00000027	-0.00000000	0.00000000
0.00000045	0.00000008	-0.00000000	0.00000000
0.00000105	-0.00000050	0.00000000	0.00000000
0.00000107	-0.00000193	0.00000000	0.00000000
0.00000033	-0.00000278	0.00000000	-0.00000000
-0.00000095	-0.00000261	0.00000000	-0.00000000
-0.00000198	-0.00000196	0.00000000	-0.00000000
-0.00000215	-0.00000078	-0.00000000	-0.00000000
-0.00000124	0.00000029	0.00000000	0.00000000
-0.00000030	0.00000034	-0.00000000	-0.00000000
0.00000030	-0.00000039	0.00000000	-0.00000000
0.00000048	-0.00000101	0.00000000	-0.00000000
-0.00000018	-0.00000166	-0.00000000	0.00000000
-0.00000090	-0.00000138	-0.00000000	-0.00000000
-0.00000098	-0.00000083	0.00000000	-0.00000000
-0.00000077	-0.00000042	0.00000000	-0.00000000
-0.00000010	-0.00000034	0.00000000	-0.00000000
0.00000036	-0.00000087	0.00000000	-0.00000000
0.00000010	-0.00000162	-0.00000000	0.00000000
-0.00000051	-0.00000207	-0.00000000	0.00000000
-0.00000140	-0.00000171	-0.00000000	0.00000000
-0.00000178	-0.00000084	-0.00000000	-0.00000000
-0.00000143	0.00000016	-0.00000000	-0.00000000
-0.00000063	0.00000068	0.00000000	-0.00000000
0.00000029	0.00000043	-0.00000000	-0.00000000
0.00000072	-0.00000027	0.00000000	0.00000000
0.00000053	-0.00000109	-0.00000000	0.00000000
-0.00000019	-0.00000159	0.00000000	0.00000000
-0.00000088	-0.00000144	-0.00000000	-0.00000000
-0.00000111	-0.00000085	-0.00000000	-0.00000000
-0.00000076	-0.00000000	0.00000000	0.00000000
-0.00000016	0.00000027	-0.00000000	0.00000000
0.00000027	-0.00000030	0.00000000	0.00000000
0.00000024	-0.00000087	0.00000000	0.00000000
-0.00000022	-0.00000110	0.00000000	0.00000000
-0.00000067	-0.00000094	0.00000000	-0.00000000
-0.00000088	-0.00000046	-0.00000000	0.00000000
-0.00000072	0.00000005	0.00000000	0.00000000
-0.00000011	0.00000038	0.00000000	0.00000000
0.00000051	0.00000009	-0.00000000	-0.00000000
0.00000053	-0.00000068	0.00000000	-0.00000000
0.00000005	-0.00000125	-0.00000000	0.00000000
-0.00000044	-0.00000108	0.00000000	0.00000000
-0.00000103	-0.00000062	0.00000000	0.00000000
-0.00000095	-0.00000015	-0.00000000	-0.00000000
-0.00000033	0.00000050	-0.00000000	-0.00000000
0.00000017	0.00000046	0.00000000	-0.00000000
0.00000051	-0.00000018	-0.00000001	-0.00000000
0.00000024	-0.00000074	0.00000000	-0.00000000
-0.00000033	-0.00000109	0.00000000	0.00000000
-0.00000072	-0.00000084	0.00000000	0.00000000
-0.00000090	-0.00000001	-0.00000000	0.00000000
-0.00000045	0.00000041	-0.00000000	0.00000000
0.00000021	0.00000042	0.00000000	0.00000000
0.00000065	-0.00000004	-0.00000000	0.00000000
0.00000040	-0.00000078	-0.00000000	0.00000000
-0.00000000	-0.00000102	0.00000000	-0.00000000
-0.00000047	-0.00000080	0.00000000	-0.00000000
-0.00000085	-0.00000016	0.00000000	0.00000000
-0.00000065	0.00000040	0.00000000	-0.00000000
-0.00000019	0.00000051	0.00000000	-0.00000000
0.00000052	0.00000025	-0.00000000	-0.00000000
0.00000079	-0.00000027	-0.00000000	0.00000000
0.00000045	-0.00000064	-0.00000000	-0.00000000
-0.00000034	-0.00000073	-0.00000000	-0.00000000
-0.00000068	-0.00000030	0.00000000	0.00000000
-0.00000074	0.00000026	0.00000000	0.00000000
-0.00000027	0.00000079	-0.00000000	-0.00000000
0.00000049	0.00000075	0.00000000	-0.00000000
0.00000076	0.00000018	-0.00000000	-0.00000001
0.00000046	-0.00000039	-0.00000000	-0.00000000
-0.00000002	-0.00000085	0.00000000	0.00000001
-0.00000047	-0.00000065	-0.00000000	0.00000000
-0.00000051	0.00000019	0.00000000	0.00000000
-0.00000017	0.00000058	-0.00000000	-0.00000000
0.00000044	0.00000068	-0.00000000	0.00000000
0.00000087	0.00000051	-0.00000000	-0.00000000
0.00000075	-0.00000029	-0.00000000	-0.00000000
0.00000035	-0.00000057	-0.00000000	-0.00000000
-0.00000034	-0.00000065	0.00000000	-0.00000000
-0.00000058	-0.00000032	-0.00000000	-0.00000000
-0.00000066	0.00000034	-0.00000000	0.00000000
-0.00000002	0.00000057	0.00000000	0.00000000
0.00000052	0.00000049	-0.00000000	-0.00000000
0.00000064	0.00000003	0.00000000	-0.00000000
0.00000053	-0.00000021	-0.00000000	0.00000000
0.00000002	-0.00000035	-0.00000000	-0.00000000
-0.00000038	-0.00000010	-0.00000000	0.00000000
-0.00000051	0.00000049	0.00000000	-0.00000000
-0.00000000	0.00000098	-0.00000000	0.00000000
0.00000068	0.00000085	-0.00000000	-0.00000000
0.00000103	0.00000055	0.00000000	0.00000000
0.00000084	-0.00000020	0.00000000	0.00000000
0.00000025	-0.00000075	0.00000000	-0.00000000
-0.00000023	-0.00000046	-0.00000000	0.00000000
-0.00000050	0.00000001	0.00000000	-0.00000000
-0.00000033	0.00000055	-0.00000000	0.00000000
0.00000018	0.00000073	-0.00000000	-0.00000000
0.00000077	0.00000039	0.00000000	-0.00000000
0.00000072	0.00000005	0.00000000	-0.00000000
0.00000028	-0.00000040	0.00000000	-0.00000000
-0.00000017	-0.00000062	0.00000000	-0.00000000
-0.00000074	-0.00000024	0.00000000	0.00000000
-0.00000060	0.00000046	0.00000000	0.00000000
-0.00000039	0.00000075	-0.00000000	-0.00000000
0.00000021	0.00000108	-0.00000000	-0.00000000
0.00000065	0.00000057	0.00000000	-0.00000000
0.00000033	-0.00000005	0.00000000	-0.00000000
-0.00000022	-0.00000002	-0.00000000	0.00000000
-0.00000037	0.00000014	-0.00000000	0.00000000
-0.00000045	0.00000051	-0.00000000	0.00000000
-0.00000008	0.00000107	0.00000000	0.00000000
0.00000047	0.00000118	-0.00000000	-0.00000000
0.00000089	0.00000087	0.00000000	0.00000000
0.00000097	0.00000026	-0.00000000	0.00000000
0.00000070	-0.00000013	-0.00000000	0.00000000
0.00000026	-0.00000046	0.00000000	0.00000000
-0.00000024	-0.00000006	-0.00000000	-0.00000000
-0.00000028	0.00000046	-0.00000000	-0.00000000
0.00000015	0.00000075	-0.00000000	0.00000000
0.00000042	0.00000085	0.00000000	0.00000001
0.00000049	0.00000040	-0.00000000	0.00000000
0.00000048	0.00000021	0.00000000	-0.00000000
0.00000010	0.00000003	0.00000000	0.00000000
-0.00000018	0.00000030	-0.00000000	-0.00000000
-0.00000021	0.00000071	-0.00000000	0.00000000
0.00000010	0.00000103	0.00000000	-0.00000000
0.00000094	0.00000102	-0.00000000	-0.00000000
0.00000107	0.00000063	-0.00000000	-0.00000000
0.00000060	-0.00000017	0.00000000	-0.00000000
0.00000016	-0.00000016	-0.00000000	-0.00000000
-0.00000032	0.00000015	0.00000000	-0.00000000
-0.00000044	0.00000047	0.00000000	0.00000000
-0.00000022	0.00000080	0.00000000	-0.00000001
0.00000012	0.00000128	-0.00000000	0.00000000
0.00000067	0.00000096	-0.00000000	-0.00000000
0.00000073	0.00000070	-0.00000000	0.00000000
0.00000058	0.00000035	-0.00000000	-0.00000000
0.00000024	0.00000013	0.00000000	0.00000000
-0.00000014	0.00000032	0.00000000	0.00000000
0.00000006	0.00000069	-0.00000000	0.00000000
0.00000055	0.00000083	-0.00000000	-0.00000000
0.00000072	0.00000060	0.00000000	-0.00000000
0.00000088	0.00000042	0.00000000	-0.00000000
0.00000070	0.00000006	0.00000000	-0.00000000
0.00000029	-0.00000020	-0.00000000	0.00000000
-0.00000030	0.00000000	0.00000000	0.00000000
-0.00000038	0.00000052	0.00000000	0.00000000
-0.00000004	0.00000093	-0.00000000	0.00000000
0.00000036	0.00000116	0.00000000	0.00000000
0.00000068	0.00000092	-0.00000000	0.00000000
0.00000065	0.00000042	-0.00000000	-0.00000000
0.00000035	0.00000016	0.00000000	-0.00000000
-0.00000003	0.00000010	0.00000000	0.00000000
-0.00000027	0.00000040	-0.00000000	-0.00000000
-0.00000017	0.00000092	-0.00000000	-0.00000000
0.00000003	0.00000121	-0.00000000	0.00000000
0.00000040	0.00000114	-0.00000000	-0.00000000
0.00000087	0.00000074	0.00000000	-0.00000000
0.00000053	0.00000039	0.00000000	0.00000000
0.00000015	0.00000026	-0.00000000	0.00000000
0.00000001	0.00000042	-0.00000000	-0.00000000
-0.00000004	0.00000086	-0.00000000	-0.00000000
0.00000034	0.00000122	0.00000000	-0.00000000
0.00000090	0.00000106	0.00000000	-0.00000000
0.00000107	0.00000071	0.00000000	-0.00000000
0.00000099	0.00000032	0.00000001	0.00000000
0.00000055	0.00000010	-0.00000000	-0.00000000
0.00000009	0.00000012	0.00000000	0.00000000
0.00000010	0.00000048	0.00000000	0.00000000
0.00000021	0.00000090	-0.00000000	0.00000000
0.00000045	0.00000097	0.00000000	-0.00000000
0.00000081	0.00000062	-0.00000000	0.00000000
0.00000073	0.00000018	-0.00000000	-0.00000000
0.00000060	-0.00000008	-0.00000000	-0.00000000
0.00000008	0.00000004	-0.00000000	-0.00000000
-0.00000041	0.00000023	-0.00000000	-0.00000000
-0.00000044	0.00000058	-0.00000000	0.00000000
-0.00000015	0.00000106	-0.00000000	-0.00000000
0.00000050	0.00000130	-0.00000000	-0.00000000
0.00000068	0.00000116	-0.00000000	0.00000000
0.00000067	0.00000077	-0.00000000	0.00000000
0.00000058	0.00000042	0.00000000	0.00000000
0.00000029	0.00000037	0.00000000	-0.00000000
0.00000023	0.00000063	-0.00000000	-0.00000000
0.00000027	0.00000072	0.00000000	0.00000000
0.00000052	0.00000081	-0.00000000	-0.00000001
0.00000067	0.00000068	0.00000000	0.00000000
0.00000081	0.00000050	-0.00000000	0.00000000
0.00000050	0.00000012	-0.00000000	-0.00000000
0.00000008	0.00000036	0.00000000	-0.00000000
-0.00000016	0.00000073	-0.00000000	-0.00000000
-0.00000004	0.00000100	-0.00000000	-0.00000000
0.00000022	0.00000116	0.00000000	-0.00000000
0.00000054	0.00000098	0.00000000	0.00000000
0.00000052	0.00000083	-0.00000000	-0.00000000
0.00000059	0.00000044	0.00000000	-0.00000000
0.00000041	0.00000032	-0.00000000	0.00000000
0.00000008	0.00000055	-0.00000000	0.00000000
0.00000009	0.00000080	0.00000000	0.00000000
0.00000020	0.00000093	-0.00000000	-0.00000000
0.00000048	0.00000094	-0.00000000	0.00000000
0.00000066	0.00000057	-0.00000000	-0.00000000
0.00000033	0.00000058	0.00000000	-0.00000000
0.00000014	0.00000051	-0.00000000	-0.00000000
-0.00000006	0.00000074	-0.00000000	0.00000000
0.00000009	0.00000113	-0.00000000	0.00000000
0.00000041	0.00000134	0.00000000	-0.00000000
0.00000090	0.00000120	0.00000000	-0.00000000
0.00000107	0.00000047	-0.00000000	0.00000000
0.00000098	-0.00000005	0.00000000	-0.00000000
0.00000052	-0.00000040	0.00000000	0.00000000
-0.00000005	-0.00000031	-0.00000000	-0.00000000
-0.00000061	0.00000020	-0.00000000	0.00000000
-0.00000044	0.00000075	0.00000000	-0.00000000
-0.00000001	0.00000122	0.00000000	0.00000000
0.00000014	0.00000127	-0.00000000	-0.00000000
0.00000060	0.00000086	-0.00000000	-0.00000000
0.00000072	0.00000055	0.00000000	-0.00000000
0.00000053	0.00000065	0.00000000	-0.00000000
0.00000037	0.00000057	0.00000000	-0.00000000
0.00000017	0.00000074	-0.00000000	-0.00000000
0.00000027	0.00000077	-0.00000000	0.00000000
0.00000066	0.00000061	-0.00000000	0.00000000
0.00000080	0.00000049	-0.00000000	0.00000000
0.00000062	0.00000038	-0.00000000	0.00000000
0.00000034	0.00000012	-0.00000000	-0.00000000
-0.00000018	0.00000018	-0.00000000	-0.00000000
-0.00000034	0.00000052	0.00000000	-0.00000000
-0.00000009	0.00000090	-0.00000000	0.00000000
0.00000008	0.00000104	-0.00000000	-0.00000000
0.00000037	0.00000096	0.00000000	-0.00000000
0.00000064	0.00000073	0.00000000	-0.00000000
0.00000050	0.00000053	0.00000000	-0.00000000
0.00000031	0.00000036	0.00000000	0.00000000
0.00000027	0.00000023	-0.00000000	-0.00000001
0.00000016	0.00000054	0.00000000	0.00000000
0.00000027	0.00000068	-0.00000000	0.00000000
0.00000033	0.00000064	-0.00000000	0.00000000
0.00000018	0.00000059	-0.00000000	-0.00000000
0.00000000	0.00000038	0.00000000	-0.00000000
-0.00000005	0.00000032	-0.00000000	-0.00000000
-0.00000023	0.00000068	-0.00000000	0.00000000
-0.00000012	0.00000104	-0.00000000	-0.00000000
0.00000020	0.00000133	0.00000000	-0.00000000
0.00000041	0.00000123	-0.00000000	-0.00000000
0.00000088	0.00000098	-0.00000000	0.00000000
0.00000070	0.00000074	0.00000000	0.00000000
0.00000046	0.00000050	0.00000000	-0.00000000
0.00000038	0.00000050	-0.00000000	-0.00000000
0.00000015	0.00000056	0.00000000	0.00000000
0.00000026	0.00000081	-0.00000000	-0.00000000
0.00000055	0.00000084	-0.00000000	-0.00000000
0.00000049	0.00000069	0.00000000	-0.00000000
0.00000056	0.00000070	-0.00000000	-0.00000000
0.00000068	0.00000042	0.00000000	0.00000000
0.00000059	0.00000012	-0.00000000	-0.00000000
0.00000016	0.00000021	-0.00000000	0.00000000
-0.00000015	0.00000055	0.00000000	0.00000000
-0.00000010	0.00000078	-0.00000000	-0.00000000
0.00000018	0.00000073	-0.00000000	0.00000000
0.00000047	0.00000061	-0.00000000	0.00000000
0.00000030	0.00000050	-0.00000000	-0.00000000
-0.00000002	0.00000033	0.00000000	0.00000000
-0.00000008	0.00000029	-0.00000000	0.00000001
-0.00000015	0.00000069	-0.00000000	-0.00000000
0.00000006	0.00000110	-0.00000000	0.00000000
0.00000021	0.00000116	-0.00000000	-0.00000000
0.00000049	0.00000098	-0.00000000	-0.00000000
0.00000071	0.00000076	-0.00000000	0.00000000
0.00000063	0.00000046	-0.00000000	-0.00000000
0.00000049	0.00000040	-0.00000000	0.00000000
0.00000023	0.00000061	0.00000000	0.00000000
0.00000027	0.00000069	0.00000000	0.00000000
0.00000040	0.00000075	-0.00000000	0.00000000
0.00000055	0.00000068	-0.00000000	-0.00000000
0.00000058	0.00000038	-0.00000000	0.00000000
0.00000066	0.00000027	0.00000000	0.00000000
0.00000023	0.00000020	-0.00000000	-0.00000000
0.00000008	0.00000011	0.00000000	0.00000000
-0.00000012	0.00000032	-0.00000000	0.00000000
-0.00000006	0.00000069	0.00000000	0.00000001
0.00000014	0.00000071	-0.00000000	-0.00000000
0.00000018	0.00000068	-0.00000000	-0.00000000
0.00000005	0.00000051	-0.00000000	0.00000000
-0.00000008	0.00000053	-0.00000000	0.00000000
-0.00000001	0.00000064	-0.00000000	0.00000000
-0.00000010	0.00000090	-0.00000000	0.00000000
-0.00000006	0.00000113	-0.00000000	0.00000000
0.00000044	0.00000107	-0.00000000	0.00000001
0.00000080	0.00000100	-0.00000000	0.00000001
0.00000079	0.00000063	-0.00000000	-0.00000000
0.00000069	0.00000030	-0.00000000	0.00000000
0.00000043	-0.00000003	-0.00000000	0.00000000
0.00000010	0.00000008	-0.00000000	-0.00000000
0.00000000	0.00000022	-0.00000000	0.00000000
0.00000013	0.00000057	-0.00000001	-0.00000000
0.00000009	0.00000070	-0.00000000	-0.00000000
0.00000012	0.00000051	0.00000000	-0.00000000
0.00000028	0.00000066	-0.00000000	-0.00000000
0.00000019	0.00000056	0.00000000	0.00000000
0.00000030	0.00000048	0.00000000	-0.00000000
0.00000003	0.00000070	0.00000000	-0.00000000
0.00000005	0.00000063	-0.00000000	-0.00000000
0.00000022	0.00000073	-0.00000000	0.00000000
0.00000030	0.00000069	-0.00000000	-0.00000000
0.00000029	0.00000060	-0.00000000	0.00000000
0.00000020	0.00000057	-0.00000000	-0.00000000
-0.00000008	0.00000063	-0.00000000	-0.00000000
-0.00000008	0.00000069	-0.00000000	-0.00000000
0.00000015	0.00000090	0.00000000	-0.00000000
0.00000019	0.00000095	-0.00000000	-0.00000000
0.00000037	0.00000091	-0.00000000	0.00000000
0.00000054	0.00000068	-0.00000000	-0.00000000
0.00000051	0.00000046	0.00000000	-0.00000000
0.00000034	0.00000045	-0.00000000	0.00000000
0.00000024	0.00000047	-0.00000000	0.00000000
0.00000029	0.00000034	-0.00000000	0.00000000
0.00000053	0.00000050	-0.00000000	0.00000000
0.00000036	0.00000055	-0.00000000	-0.00000000
0.00000037	0.00000036	-0.00000000	-0.00000000
0.00000025	0.00000040	-0.00000000	0.00000000
-0.00000009	0.00000033	-0.00000000	-0.00000000
-0.00000006	0.00000047	-0.00000000	-0.00000000
-0.00000009	0.00000068	0.00000000	-0.00000000
0.00000021	0.00000082	-0.00000000	-0.00000000
0.00000038	0.00000095	-0.00000000	0.00000000
0.00000060	0.00000083	-0.00000000	-0.00000000
0.00000090	0.00000032	-0.00000001	0.00000000
0.00000068	0.00000010	-0.00000000	0.00000000
0.00000052	0.00000005	-0.00000000	-0.00000000
0.00000023	-0.00000007	-0.00000000	0.00000000
-0.00000013	0.00000004	-0.00000000	0.00000000
-0.00000005	0.00000023	-0.00000001	0.00000000
-0.00000007	0.00000034	-0.00000001	0.00000000
-0.00000002	0.00000043	0.00000000	0.00000000
0.00000009	0.00000035	0.00000000	0.00000000
0.00000001	0.00000036	-0.00000001	0.00000000
-0.00000004	0.00000061	-0.00000001	-0.00000000
-0.00000007	0.00000050	-0.00000000	0.00000000
0.00000015	0.00000088	-0.00000001	0.00000000
0.00000024	0.00000079	-0.00000000	0.00000000
0.00000026	0.00000050	-0.00000001	-0.00000001
0.00000028	0.00000038	-0.00000000	-0.00000000
0.00000026	0.00000035	-0.00000000	-0.00000000
-0.00000002	0.00000047	-0.00000000	-0.00000000
0.00000005	0.00000041	-0.00000000	-0.00000000
0.00000017	0.00000050	0.00000000	-0.00000000
0.00000025	0.00000071	-0.00000000	-0.00000000
0.00000041	0.00000063	-0.00000001	-0.00000000
0.00000055	0.00000043	-0.00000000	-0.00000001
0.00000045	0.00000005	0.00000000	-0.00000000
0.00000032	0.00000009	0.00000000	0.00000000
0.00000011	0.00000030	-0.00000000	-0.00000000
0.00000006	0.00000030	0.00000000	-0.00000000
0.00000014	0.00000051	-0.00000000	-0.00000000
0.00000011	0.00000058	0.00000000	-0.00000001
0.00000024	0.00000033	-0.00000000	-0.00000001
0.00000030	0.00000028	-0.00000000	-0.00000000
0.00000011	0.00000041	-0.00000000	-0.00000000
-0.00000002	0.00000025	-0.00000000	-0.00000001
-0.00000003	0.00000033	-0.00000000	-0.00000000
-0.00000001	0.00000061	0.00000000	-0.00000000
0.00000021	0.00000065	0.00000000	-0.00000000
0.00000034	0.00000060	0.00000000	0.00000000
0.00000031	0.00000026	0.00000000	0.00000000
0.00000015	0.00000038	0.00000000	0.00000000
0.00000005	0.00000035	-0.00000000	0.00000000
-0.00000000	0.00000046	-0.00000000	0.00000000
0.00000011	0.00000061	-0.00000000	-0.00000000
0.00000029	0.00000046	-0.00000001	-0.00000000
0.00000024	0.00000053	-0.00000000	-0.00000000
0.00000033	0.00000049	-0.00000001	-0.00000000
0.00000029	0.00000031	-0.00000000	-0.00000000
0.00000026	0.00000025	-0.00000000	-0.00000000
0.00000024	0.00000021	-0.00000000	-0.00000000
0.00000016	0.00000039	-0.00000000	-0.00000000
0.00000020	0.00000046	-0.00000000	-0.00000001
0.00000027	0.00000026	-0.00000000	-0.00000000
0.00000038	0.00000010	0.00000000	-0.00000000
0.00000025	0.00000013	-0.00000000	-0.00000000
0.00000010	0.00000015	0.00000000	-0.00000000
0.00000005	0.00000023	0.00000000	-0.00000000
-0.00000009	0.00000020	-0.00000000	-0.00000000
-0.00000012	0.00000034	0.00000000	-0.00000000
0.00000011	0.00000040	0.00000000	-0.00000000
0.00000025	0.00000044	0.00000000	-0.00000000
0.00000028	0.00000028	-0.00000000	-0.00000000
0.00000021	0.00000017	-0.00000000	-0.00000000
0.00000022	0.00000021	0.00000000	-0.00000000
0.00000008	0.00000022	-0.00000000	-0.00000000
-0.00000006	0.00000036	-0.00000000	-0.00000000
-0.00000012	0.00000051	-0.00000000	-0.00000000
0.00000007	0.00000050	0.00000000	-0.00000000
0.00000022	0.00000053	0.00000000	-0.00000000
0.00000018	0.00000052	0.00000000	-0.00000000
0.00000012	0.00000038	0.00000000	0.00000000
0.00000003	0.00000028	0.00000000	0.00000000
-0.00000008	0.00000034	0.00000000	-0.00000000
-0.00000009	0.00000031	0.00000000	0.00000000
0.00000003	0.00000035	-0.00000000	-0.00000000
0.00000020	0.00000037	-0.00000000	-0.00000000
0.00000022	0.00000027	-0.00000000	-0.00000000
0.00000020	0.00000009	0.00000000	-0.00000000
0.00000016	0.00000018	-0.00000000	-0.00000000
-0.00000004	0.00000029	-0.00000000	-0.00000000
-0.00000016	0.00000035	-0.00000000	0.00000000
0.00000007	0.00000039	-0.00000000	0.00000000
0.00000032	0.00000022	0.00000000	-0.00000000
0.00000021	0.00000033	-0.00000000	-0.00000000
0.00000012	0.00000007	-0.00000000	-0.00000000
0.00000021	0.00000020	0.00000000	-0.00000000
0.00000010	0.00000016	0.00000000	-0.00000000
-0.00000012	0.00000016	-0.00000000	0.00000000
0.00000003	0.00000036	-0.00000000	-0.00000000
0.00000014	0.00000020	-0.00000000	-0.00000000
0.00000013	0.00000021	-0.00000000	0.00000000
0.00000016	0.00000010	-0.00000000	-0.00000000
0.00000011	-0.00000005	0.00000000	-0.00000000
-0.00000001	0.00000024	0.00000000	-0.00000000
0.00000005	0.00000018	-0.00000000	-0.00000000
0.00000031	0.00000032	-0.00000000	0.00000000
0.00000026	0.00000033	0.00000000	-0.00000001
0.00000027	0.00000015	-0.00000000	-0.00000000
0.00000000	0.00000006	0.00000000	0.00000000
0.00000002	0.00000004	-0.00000000	0.00000000
-0.00000006	0.00000003	-0.00000000	-0.00000000
-0.00000006	0.00000017	-0.00000000	-0.00000000
-0.00000001	0.00000031	-0.00000000	-0.00000000
0.00000006	0.00000034	-0.00000000	-0.00000001
0.00000011	0.00000030	-0.00000000	-0.00000000
0.00000008	0.00000034	0.00000000	-0.00000000
0.00000018	0.00000037	-0.00000000	-0.00000000
0.00000021	0.00000034	-0.00000000	-0.00000000
0.00000003	0.00000024	-0.00000000	0.00000000
0.00000018	0.00000028	-0.00000000	-0.00000000
0.00000033	0.00000041	0.00000000	-0.00000000
0.00000021	0.00000037	0.00000000	-0.00000000
0.00000023	0.00000011	-0.00000000	0.00000000
0.00000006	0.00000008	0.00000000	-0.00000001
0.00000007	0.00000022	-0.00000000	-0.00000001
0.00000009	0.00000013	-0.00000000	-0.00000000
0.00000004	0.00000018	-0.00000000	-0.00000000
0.00000012	0.00000005	-0.00000000	-0.00000000
0.00000004	0.00000025	0.00000000	-0.00000000
0.00000024	0.00000021	-0.00000000	0.00000000
0.00000018	0.00000003	-0.00000000	-0.00000001
0.00000013	0.00000011	-0.00000000	-0.00000000
0.00000019	0.00000013	0.00000000	-0.00000000
0.00000001	0.00000013	0.00000000	-0.00000001
-0.00000011	0.00000023	0.00000000	-0.00000000
0.00000000	0.00000021	0.00000000	-0.00000000
-0.00000005	0.00000010	-0.00000000	-0.00000000
0.00000009	0.00000020	-0.00000000	-0.00000000
-0.00000004	0.00000015	-0.00000000	0.00000000
-0.00000010	0.00000008	0.00000000	-0.00000000
0.00000006	0.00000023	-0.00000000	-0.00000000
-0.00000002	0.00000027	-0.00000000	-0.00000000
-0.00000012	0.00000012	0.00000000	0.00000000
-0.00000009	0.00000016	-0.00000000	-0.00000000
0.00000005	0.00000019	-0.00000000	-0.00000000
0.00000000	0.00000017	0.00000000	-0.00000000
-0.00000000	0.00000021	-0.00000000	0.00000000
0.00000003	0.00000010	-0.00000000	-0.00000000
-0.00000005	0.00000007	-0.00000000	-0.00000000
0.00000006	0.00000017	0.00000000	-0.00000000
0.00000011	0.00000029	-0.00000000	0.00000000
0.00000005	0.00000006	-0.00000000	-0.00000000
0.00000019	0.00000021	-0.00000000	0.00000000
0.00000002	0.00000006	0.00000000	0.00000000
-0.00000004	-0.00000017	0.00000000	-0.00000000
0.00000010	0.00000006	0.00000000	0.00000000
-0.00000002	0.00000019	-0.00000000	0.00000000
-0.00000013	0.00000008	0.00000000	-0.00000000
0.00000014	0.00000001	-0.00000000	-0.00000000
0.00000020	-0.00000012	-0.00000000	0.00000000
0.00000009	-0.00000001	-0.00000000	0.00000000
-0.00000011	0.00000003	0.00000000	0.00000000
-0.00000020	0.00000018	0.00000000	-0.00000000
-0.00000013	0.00000011	-0.00000000	0.00000000
0.00000000	0.00000006	-0.00000000	0.00000000
0.00000009	0.00000022	-0.00000000	0.00000000
0.00000009	0.00000017	0.00000000	-0.00000000
0.00000013	0.00000009	-0.00000000	-0.00000000
0.00000020	0.00000012	0.00000000	-0.00000001
0.00000018	0.00000008	-0.00000000	-0.00000000
0.00000017	0.00000008	0.00000000	0.00000000
0.00000009	0.00000026	-0.00000000	0.00000000
0.00000020	0.00000017	-0.00000000	-0.00000000
0.00000025	0.00000004	-0.00000000	0.00000000
0.00000016	-0.00000008	-0.00000000	-0.00000000
-0.00000000	-0.00000005	-0.00000000	0.00000000
-0.00000004	-0.00000000	-0.00000000	-0.00000000
0.00000008	-0.00000002	-0.00000000	-0.00000000
-0.00000004	-0.00000003	-0.00000000	-0.00000000
-0.00000004	-0.00000002	-0.00000000	0.00000000
-0.00000008	0.00000013	-0.00000000	0.00000000
-0.00000015	0.00000004	-0.00000000	-0.00000000
0.00000005	0.00000027	-0.00000000	0.00000000
0.00000005	0.00000019	-0.00000001	0.00000000
-0.00000001	-0.00000009	-0.00000000	-0.00000000
-0.00000003	0.00000017	-0.00000001	0.00000000
0.00000004	0.00000034	0.00000000	-0.00000000
0.00000019	0.00000028	-0.00000000	-0.00000000
0.00000011	0.00000009	0.00000000	-0.00000000
0.00000014	-0.00000014	-0.00000001	-0.00000000
0.00000026	-0.00000004	-0.00000000	0.00000000
0.00000000	0.00000011	-0.00000000	-0.00000000
-0.00000012	-0.00000011	-0.00000000	0.00000000
-0.00000012	-0.00000024	-0.00000000	0.00000000
-0.00000023	-0.00000008	-0.00000001	0.00000000
-0.00000021	0.00000015	-0.00000000	-0.00000000
-0.00000028	0.00000001	-0.00000000	-0.00000000
-0.00000004	-0.00000007	0.00000000	-0.00000001
-0.00000004	-0.00000011	-0.00000000	-0.00000000
-0.00000009	0.00000012	-0.00000000	0.00000000
-0.00000009	0.00000006	-0.00000000	0.00000000
-0.00000007	-0.00000003	-0.00000000	-0.00000000
0.00000002	0.00000021	-0.00000000	-0.00000000
0.00000011	0.00000025	-0.00000000	0.00000000
0.00000013	0.00000006	-0.00000000	0.00000000
0.00000010	0.00000001	-0.00000000	0.00000000
0.00000028	0.00000011	-0.00000000	-0.00000000
0.00000014	0.00000001	-0.00000000	-0.00000000
-0.00000011	0.00000002	0.00000000	0.00000000
-0.00000012	-0.00000010	0.00000000	-0.00000000
-0.00000001	-0.00000007	0.00000000	0.00000000
-0.00000004	0.00000013	-0.00000000	0.00000000
-0.00000009	-0.00000012	-0.00000001	-0.00000000
0.00000005	-0.00000006	-0.00000000	0.00000000
-0.00000007	0.00000012	-0.00000000	-0.00000000
-0.00000022	0.00000001	-0.00000000	-0.00000000
-0.00000012	0.00000013	-0.00000000	0.00000000
0.00000001	0.00000019	-0.00000000	0.00000000
0.00000013	0.00000013	-0.00000000	-0.00000000
-0.00000000	0.00000009	-0.00000001	0.00000000
-0.00000010	0.00000029	-0.00000000	0.00000000
-0.00000010	0.00000027	-0.00000000	0.00000000
-0.00000003	0.00000008	-0.00000000	0.00000000
0.00000000	0.00000017	-0.00000000	0.00000000
0.00000010	0.00000004	0.00000000	-0.00000000
0.00000016	0.00000004	-0.00000000	-0.00000000
0.00000005	0.00000002	-0.00000000	0.00000000
0.00000002	-0.00000001	-0.00000000	-0.00000000
0.00000016	-0.00000002	-0.00000000	-0.00000000
0.00000001	-0.00000013	-0.00000001	0.00000000
-0.00000005	-0.00000012	-0.00000000	-0.00000000
-0.00000023	-0.00000020	-0.00000000	-0.00000000
-0.00000004	-0.00000014	-0.00000000	-0.00000000
-0.00000006	-0.00000032	-0.00000000	-0.00000000
-0.00000017	-0.00000019	-0.00000000	0.00000000
-0.00000016	-0.00000009	-0.00000000	-0.00000000
-0.00000020	0.00000000	-0.00000000	-0.00000001
-0.00000015	0.00000010	0.00000000	0.00000000
-0.00000016	0.00000016	-0.00000000	-0.00000000
-0.00000004	0.00000024	-0.00000000	-0.00000000
0.00000001	0.00000010	0.00000000	0.00000000
0.00000002	-0.00000001	0.00000000	-0.00000000
0.00000003	0.00000019	-0.00000000	0.00000000
-0.00000003	-0.00000003	-0.00000000	0.00000000
-0.00000011	-0.00000007	0.00000000	-0.00000000
0.00000002	0.00000008	-0.00000000	0.00000000
0.00000001	0.00000017	-0.00000000	-0.00000000
-0.00000003	0.00000006	-0.00000000	0.00000001
0.00000008	-0.00000004	-0.00000000	0.00000000
0.00000001	-0.00000002	-0.00000001	0.00000000
-0.00000005	0.00000003	-0.00000001	-0.00000000
-0.00000008	-0.00000004	-0.00000000	-0.00000000
0.00000007	-0.00000008	-0.00000000	0.00000000
0.00000002	-0.00000007	-0.00000000	-0.00000000
-0.00000015	0.00000006	-0.00000000	0.00000000
-0.00000006	0.00000012	0.00000000	-0.00000000
-0.00000005	0.00000006	-0.00000000	0.00000000
-0.00000008	0.00000014	-0.00000000	-0.00000000
0.00000007	0.00000007	-0.00000000	0.00000000
0.00000006	-0.00000000	-0.00000000	-0.00000000
0.00000010	0.00000012	0.00000000	0.00000000
0.00000014	0.00000009	-0.00000000	0.00000000
0.00000015	-0.00000003	-0.00000000	0.00000000
0.00000017	0.00000003	-0.00000001	0.00000000
0.00000001	-0.00000017	-0.00000000	-0.00000000
0.00000005	-0.00000028	-0.00000001	0.00000000
-0.00000001	0.00000001	-0.00000001	-0.00000000
-0.00000010	-0.00000011	-0.00000001	0.00000000
0.00000001	-0.00000004	-0.00000001	0.00000000
-0.00000003	-0.00000009	-0.00000001	-0.00000000
0.00000002	-0.00000005	-0.00000001	-0.00000000
0.00000001	-0.00000029	-0.00000000	-0.00000001
-0.00000008	-0.00000019	-0.00000000	-0.00000000
-0.00000002	-0.00000005	-0.00000001	-0.00000000
-0.00000001	-0.00000013	-0.00000000	-0.00000000
-0.00000015	-0.00000014	-0.00000001	-0.00000000
0.00000002	-0.00000002	-0.00000001	-0.00000000
-0.00000005	0.00000004	-0.00000001	-0.00000000
0.00000002	-0.00000004	-0.00000001	-0.00000001
0.00000017	0.00000007	-0.00000001	-0.00000001
-0.00000006	0.00000002	-0.00000001	-0.00000000
-0.00000016	0.00000000	-0.00000001	-0.00000001
-0.00000010	0.00000009	-0.00000000	-0.00000001
0.00000000	-0.00000015	-0.00000001	-0.00000001
0.00000010	-0.00000011	-0.00000001	-0.00000001
0.00000008	-0.00000006	-0.00000001	-0.00000001
-0.00000001	-0.00000013	-0.00000001	-0.00000000
-0.00000006	-0.00000011	-0.00000001	-0.00000001
0.00000006	0.00000004	-0.00000001	-0.00000001
-0.00000007	0.00000001	-0.00000001	-0.00000001
-0.00000011	-0.00000005	-0.00000001	-0.00000002
-0.00000003	-0.00000000	-0.00000001	-0.00000002
-0.00000001	0.00000007	-0.00000001	-0.00000002
-0.00000008	0.00000008	-0.00000000	-0.00000002
-0.00000007	0.00000008	-0.00000000	-0.00000003
-0.00000005	0.00000005	0.00000000	-0.00000004
-0.00000010	0.00000022	0.00000001	-0.00000005
-0.00000009	0.00000011	0.00000003	-0.00000006
0.00000011	-0.00000001	0.00000007	-0.00000006
-0.00000002	0.00000007	0.00000012	-0.00000005
0.00000002	-0.00000005	0.00000018	0.00000000
-0.00000004	-0.00000017	0.00000023	0.00000013
0.00000001	-0.00000009	0.00000016	0.00000035
0.00000003	-0.00000006	-0.00000016	0.00000054
-0.00000014	-0.00000007	-0.00000061	0.00000021
0.00000004	0.00000002	-0.00000059	-0.00000031
0.00000013	0.00000003	-0.00000030	-0.00000054
0.00000005	-0.00000002	0.00000009	-0.00000067
-0.00000000	-0.00000003	0.00000060	-0.00000040
0.00000006	-0.00000009	0.00000062	0.00000011
-0.00000006	-0.00000003	0.00000026	0.00000032
-0.00000001	0.00000016	0.00000005	0.00000029
-0.00000009	0.00000007	-0.00000006	0.00000019
-0.00000007	-0.00000003	-0.00000007	0.00000011
-0.00000015	0.00000002	-0.00000007	0.00000007
-0.00000008	0.00000007	-0.00000007	0.00000004
-0.00000006	-0.00000012	-0.00000006	0.00000002
-0.00000005	-0.00000009	-0.00000005	0.00000002
-0.00000022	0.00000009	-0.00000004	0.00000000
-0.00000016	0.00000006	-0.00000004	0.00000000
-0.00000006	-0.00000009	-0.00000003	0.00000000
-0.00000006	-0.00000016	-0.00000003	0.00000001
0.00000004	-0.00000006	-0.00000002	-0.00000001
-0.00000008	-0.00000007	-0.00000002	-0.00000000
-0.00000015	0.00000011	-0.00000002	-0.00000001
-0.00000011	-0.00000003	-0.00000002	-0.00000001
0.00000005	-0.00000015	-0.00000002	-0.00000001
0.00000001	0.00000001	-0.00000001	-0.00000001
-0.00000015	0.00000010	-0.00000001	-0.00000001
-0.00000011	-0.00000004	-0.00000001	-0.00000000
-0.00000002	-0.00000003	-0.00000001	-0.00000000
0.00000002	-0.00000006	-0.00000001	-0.00000000
-0.00000000	-0.00000018	-0.00000001	0.00000000
-0.00000006	-0.00000003	-0.00000001	-0.00000001
-0.00000010	0.00000004	-0.00000001	-0.00000001
-0.00000015	-0.00000026	-0.00000001	-0.00000001
0.00000004	-0.00000016	-0.00000001	-0.00000000
-0.00000000	-0.00000008	-0.00000001	-0.00000000
0.00000001	-0.00000020	-0.00000001	-0.00000001
0.00000003	0.00000009	-0.00000001	-0.00000001
-0.00000004	0.00000009	0.00000000	-0.00000000
-0.00000003	-0.00000003	-0.00000001	0.00000000
-0.00000019	-0.00000011	-0.00000001	-0.00000000
-0.00000028	-0.00000000	-0.00000001	-0.00000000
-0.00000007	0.00000001	-0.00000002	-0.00000000
-0.00000007	0.00000004	-0.00000001	-0.00000001
-0.00000011	0.00000005	-0.00000000	0.00000000
-0.00000006	0.00000007	-0.00000001	-0.00000001
-0.00000021	0.00000010	-0.00000001	-0.00000001
-0.00000009	0.00000004	-0.00000001	-0.00000001
-0.00000001	-0.00000005	-0.00000002	0.00000000
-0.00000006	-0.00000003	-0.00000001	-0.00000001
0.00000010	-0.00000016	-0.00000001	-0.00000000
0.00000021	-0.00000019	-0.00000002	-0.00000000
-0.00000001	-0.00000001	-0.00000002	-0.00000001
-0.00000003	-0.00000014	-0.00000001	-0.00000001
0.00000003	-0.00000018	0.00000000	-0.00000002
-0.00000005	0.00000007	-0.00000002	-0.00000000
-0.00000006	-0.00000008	-0.00000001	-0.00000001
-0.00000005	-0.00000004	-0.00000001	-0.00000002
-0.00000009	0.00000001	-0.00000000	-0.00000002
-0.00000023	0.00000018	-0.00000001	-0.00000002
-0.00000013	0.00000020	-0.00000000	-0.00000003
-0.00000013	0.00000012	0.00000000	-0.00000002
-0.00000015	0.00000006	0.00000001	-0.00000003
0.00000015	0.00000015	0.00000002	-0.00000002
0.00000005	0.00000011	0.00000003	-0.00000002
-0.00000000	0.00000007	0.00000004	-0.00000000
0.00000020	-0.00000008	0.00000004	0.00000001
0.00000011	-0.00000004	0.00000003	0.00000003
-0.00000008	0.00000013	0.00000000	0.00000003
-0.00000008	0.00000017	-0.00000000	0.00000003
-0.00000001	-0.00000002	-0.00000003	0.00000002
0.00000013	-0.00000007	-0.00000003	-0.00000000
0.00000017	-0.00000015	-0.00000002	-0.00000001
0.00000014	-0.00000036	-0.00000003	-0.00000002
-0.00000012	-0.00000009	-0.00000002	-0.00000003
-0.00000004	-0.00000011	-0.00000001	-0.00000004
-0.00000012	-0.00000008	-0.00000000	-0.00000006
-0.00000012	-0.00000004	0.00000002	-0.00000007
-0.00000013	0.00000004	0.00000006	-0.00000006
-0.00000010	0.00000023	0.00000010	-0.00000004
-0.00000008	0.00000024	0.00000014	0.00000001
-0.00000002	0.00000020	0.00000014	0.00000008
-0.00000001	0.00000038	0.00000012	0.00000015
0.00000000	0.00000025	0.00000002	0.00000022
0.00000000	0.00000016	-0.00000009	0.00000019
0.00000006	0.00000009	-0.00000017	0.00000012
0.00000007	0.00000005	-0.00000018	0.00000004
0.00000002	0.00000002	-0.00000016	-0.00000004
0.00000021	-0.00000007	-0.00000010	-0.00000009
0.00000022	-0.00000005	-0.00000004	-0.00000008
0.00000027	-0.00000007	-0.00000002	-0.00000007
0.00000013	-0.00000015	0.00000001	-0.00000004
0.00000009	0.00000002	-0.00000000	-0.00000003
0.00000005	-0.00000020	0.00000001	-0.00000003
-0.00000023	-0.00000018	0.00000001	-0.00000000
-0.00000015	-0.00000006	0.00000000	-0.00000000
-0.00000007	-0.00000006	-0.00000001	-0.00000002
-0.00000022	-0.00000006	0.00000002	0.00000000
-0.00000035	-0.00000004	0.00000002	0.00000002
-0.00000029	0.00000014	-0.00000001	0.00000005
-0.00000013	0.00000009	-0.00000001	0.00000004
-0.00000011	0.00000019	-0.00000006	0.00000007
-0.00000003	0.00000012	-0.00000010	0.00000005
-0.00000011	0.00000011	-0.00000012	-0.00000003
-0.00000016	0.00000025	-0.00000009	-0.00000006
0.00000011	0.00000020	-0.00000006	-0.00000010
0.00000024	0.00000010	0.00000000	-0.00000010
0.00000011	0.00000009	0.00000002	-0.00000007
0.00000031	-0.00000006	0.00000003	-0.00000004
0.00000037	0.00000002	0.00000002	-0.00000004
0.00000004	-0.00000005	0.00000004	-0.00000000
0.00000017	-0.00000014	0.00000001	0.00000001
0.00000015	0.00000003	-0.00000001	0.00000003
-0.00000004	-0.00000012	-0.00000003	0.00000002
-0.00000011	-0.00000002	-0.00000008	-0.00000002
-0.00000011	0.00000018	-0.00000004	-0.00000005
-0.00000001	-0.00000009	-0.00000003	-0.00000009
-0.00000015	-0.00000010	0.00000003	-0.00000006
-0.00000026	0.00000008	0.00000006	-0.00000004
-0.00000014	0.00000008	0.00000003	0.00000003
0.00000001	0.00000004	-0.00000001	0.00000001
0.00000007	0.00000009	-0.00000001	-0.00000000
0.00000008	0.00000008	-0.00000003	0.00000000
0.00000003	0.00000011	-0.00000003	-0.00000002
0.00000019	0.00000012	-0.00000002	-0.00000003
0.00000013	0.00000010	-0.00000003	-0.00000003
0.00000009	0.00000004	-0.00000002	-0.00000004
0.00000042	0.00000007	-0.00000000	-0.00000006
0.00000026	0.00000001	0.00000001	-0.00000005
0.00000000	0.00000005	0.00000002	-0.00000004
0.00000014	-0.00000011	0.00000004	-0.00000004
0.00000005	-0.00000012	0.00000003	-0.00000002
0.00000002	0.00000000	0.00000004	-0.00000001
0.00000003	-0.00000021	0.00000004	-0.00000000
-0.00000003	-0.00000017	0.00000002	0.00000001
-0.00000007	-0.00000001	0.00000001	0.00000003
-0.00000020	-0.00000012	-0.00000001	0.00000002
-0.00000017	-0.00000003	-0.00000002	-0.00000001
-0.00000011	-0.00000001	-0.00000002	-0.00000001
-0.00000023	-0.00000005	-0.00000002	-0.00000002
-0.00000009	-0.00000006	-0.00000000	-0.00000004
-0.00000002	0.00000008	0.00000002	-0.00000004
-0.00000012	0.00000012	0.00000004	-0.00000002
-0.00000004	-0.00000003	0.00000003	0.00000001
0.00000011	0.00000003	0.00000000	0.00000003
-0.00000001	0.00000012	-0.00000003	0.00000002
0.00000006	0.00000002	-0.00000004	-0.00000001
0.00000007	0.00000007	-0.00000004	-0.00000004
0.00000017	0.00000005	-0.00000002	-0.00000007
0.00000010	0.00000008	0.00000002	-0.00000007
-0.00000002	-0.00000000	0.00000004	-0.00000006
0.00000021	0.00000005	0.00000005	-0.00000004
0.00000012	0.00000006	0.00000004	-0.00000003
0.00000015	-0.00000005	0.00000004	-0.00000004
0.00000013	-0.00000002	0.00000005	-0.00000005
-0.00000014	0.00000006	0.00000009	-0.00000007
-0.00000010	-0.00000003	0.00000018	-0.00000004
0.00000006	0.00000014	0.00000025	0.00000010
-0.00000001	0.00000010	0.00000015	0.00000026
0.00000018	0.00000004	-0.00000003	0.00000031
0.00000035	0.00000005	-0.00000018	0.00000025
-0.00000008	-0.00000005	-0.00000029	0.00000010
-0.00000005	-0.00000005	-0.00000025	-0.00000008
0.00000023	0.00000004	-0.00000013	-0.00000015
0.00000024	0.00000022	-0.00000004	-0.00000012
0.00000016	0.00000012	-0.00000001	-0.00000009
0.00000021	0.00000010	-0.00000000	-0.00000007
0.00000014	0.00000005	-0.00000001	-0.00000006
0.00000002	-0.00000013	-0.00000000	-0.00000005
0.00000006	-0.00000010	0.00000000	-0.00000005
0.00000002	0.00000009	0.00000000	-0.00000006
0.00000006	0.00000003	0.00000002	-0.00000006
0.00000003	-0.00000005	0.00000003	-0.00000008
0.00000002	0.00000012	0.00000005	-0.00000009
-0.00000008	0.00000015	0.00000010	-0.00000011
-0.00000019	0.00000006	0.00000019	-0.00000009
0.00000008	-0.00000000	0.00000029	0.00000000
0.00000016	0.00000012	0.00000030	0.00000021
-0.00000004	0.00000004	0.00000013	0.00000038
0.00000013	0.00000008	-0.00000010	0.00000040
-0.00000002	0.00000016	-0.00000028	0.00000029
0.00000008	0.00000008	-0.00000037	0.00000009
0.00000015	0.00000010	-0.00000029	-0.00000010
0.00000030	0.00000008	-0.00000016	-0.00000015
0.00000020	0.00000006	-0.00000009	-0.00000013
0.00000002	-0.00000010	-0.00000005	-0.00000011
0.00000002	-0.00000012	-0.00000003	-0.00000010
0.00000010	-0.00000011	-0.00000002	-0.00000009
-0.00000005	0.00000007	-0.00000000	-0.00000007
-0.00000018	-0.00000002	-0.00000000	-0.00000006
0.00000005	-0.00000006	0.00000001	-0.00000005
-0.00000010	0.00000007	0.00000000	-0.00000004
0.00000006	0.00000005	-0.00000000	-0.00000004
-0.00000006	0.00000001	-0.00000000	-0.00000004
-0.00000009	0.00000014	0.00000000	-0.00000004
-0.00000002	0.00000023	0.00000000	-0.00000004
0.00000002	0.00000021	0.00000000	-0.00000004
0.00000013	0.00000022	0.00000000	-0.00000003
0.00000018	0.00000032	-0.00000000	-0.00000003
0.00000007	0.00000028	0.00000000	-0.00000002
0.00000017	0.00000013	0.00000000	-0.00000002
0.00000021	0.00000016	0.00000000	-0.00000002
0.00000011	0.00000009	-0.00000001	-0.00000002
0.00000009	-0.00000010	-0.00000001	-0.00000003
0.00000024	-0.00000015	-0.00000000	-0.00000004
0.00000023	-0.00000003	0.00000001	-0.00000004
0.00000006	-0.00000015	0.00000002	-0.00000003
0.00000009	-0.00000008	0.00000002	-0.00000001
-0.00000018	-0.00000004	-0.00000000	0.00000000
-0.00000030	-0.00000010	-0.00000002	-0.00000001
-0.00000003	-0.00000003	-0.00000002	-0.00000002
0.00000003	-0.00000001	-0.00000001	-0.00000003
-0.00000004	0.00000014	0.00000001	-0.00000004
0.00000009	-0.00000004	0.00000002	-0.00000002
0.00000024	-0.00000005	0.00000001	-0.00000001
0.00000007	0.00000014	-0.00000001	-0.00000001
0.00000012	0.00000035	-0.00000002	-0.00000002
0.00000031	0.00000008	-0.00000002	-0.00000004
0.00000015	-0.00000014	0.00000000	-0.00000006
-0.00000004	0.00000011	0.00000003	-0.00000005
0.00000016	0.00000018	0.00000005	-0.00000003
0.00000027	-0.00000004	0.00000004	0.00000000
0.00000009	-0.00000006	0.00000000	0.00000002
0.00000015	-0.00000000	-0.00000002	-0.00000001
0.00000010	-0.00000009	-0.00000003	-0.00000004
-0.00000010	-0.00000015	0.00000000	-0.00000008
-0.00000010	-0.00000004	0.00000006	-0.00000007
-0.00000003	-0.00000002	0.00000009	-0.00000002
0.00000002	-0.00000000	0.00000007	0.00000002
-0.00000000	-0.00000002	0.00000005	0.00000005
-0.00000007	-0.00000001	0.00000001	0.00000007
-0.00000015	0.00000010	-0.00000003	0.00000005
-0.00000004	0.00000013	-0.00000004	0.00000002
-0.00000013	0.00000021	-0.00000004	0.00000001
-0.00000011	0.00000016	-0.00000005	-0.00000000
0.00000021	0.00000022	-0.00000005	-0.00000003
0.00000010	0.00000019	-0.00000003	-0.00000005
0.00000017	0.00000020	-0.00000001	-0.00000005
0.00000022	0.00000014	0.00000001	-0.00000005
0.00000014	0.00000012	0.00000002	-0.00000003
0.00000018	0.00000021	0.00000002	-0.00000002
0.00000011	0.00000012	0.00000001	-0.00000000
0.00000011	-0.00000006	-0.00000000	-0.00000000
0.00000024	-0.00000000	-0.00000002	0.00000000
0.00000007	-0.00000009	-0.00000002	-0.00000001
-0.00000003	-0.00000009	-0.00000002	-0.00000003
0.00000005	-0.00000011	0.00000000	-0.00000004
0.00000002	-0.00000005	0.00000001	-0.00000002
0.00000015	-0.00000020	0.00000000	-0.00000000
-0.00000008	-0.00000017	-0.00000000	0.00000000
-0.00000013	0.00000022	-0.00000002	0.00000002
0.00000012	0.00000019	-0.00000004	0.00000001
-0.00000002	0.00000014	-0.00000006	-0.00000000
-0.00000004	0.00000008	-0.00000008	-0.00000002
0.00000025	0.00000012	-0.00000009	-0.00000006
0.00000029	0.00000005	-0.00000007	-0.00000010
0.00000010	0.00000009	-0.00000003	-0.00000011
0.00000020	0.00000014	0.00000000	-0.00000010
0.00000023	0.00000016	0.00000001	-0.00000007
0.00000015	0.00000021	-0.00000001	-0.00000006
0.00000034	0.00000011	-0.00000001	-0.00000008
0.00000025	-0.00000015	-0.00000001	-0.00000009
0.00000031	0.00000008	0.00000000	-0.00000009
0.00000028	-0.00000014	0.00000002	-0.00000009
0.00000015	-0.00000021	0.00000002	-0.00000008
0.00000008	-0.00000015	0.00000002	-0.00000008
0.00000015	-0.00000007	0.00000002	-0.00000008
0.00000009	-0.00000010	0.00000002	-0.00000007
-0.00000010	-0.00000001	0.00000001	-0.00000007
-0.00000002	0.00000008	0.00000001	-0.00000008
-0.00000000	-0.00000006	0.00000001	-0.00000009
0.00000001	-0.00000008	0.00000001	-0.00000010
0.00000007	0.00000002	0.00000002	-0.00000012
-0.00000007	-0.00000006	0.00000003	-0.00000013
0.00000005	0.00000013	0.00000005	-0.00000012
0.00000010	0.00000004	0.00000006	-0.00000012
0.00000019	-0.00000006	0.00000006	-0.00000012
0.00000014	0.00000001	0.00000007	-0.00000013
0.00000015	0.00000016	0.00000008	-0.00000014
0.00000011	0.00000027	0.00000009	-0.00000014
0.00000016	0.00000014	0.00000010	-0.00000016
0.00000009	0.00000000	0.00000012	-0.00000018
0.00000018	-0.00000007	0.00000016	-0.00000019
0.00000023	0.00000004	0.00000020	-0.00000022
0.00000014	0.00000023	0.00000033	-0.00000027
0.00000021	0.00000008	0.00000057	-0.00000017
0.00000020	0.00000000	0.00000063	0.00000021
-0.00000001	0.00000003	0.00000034	0.00000042
0.00000010	-0.00000007	0.00000012	0.00000036
-0.00000010	0.00000008	0.00000004	0.00000027
0.00000001	0.00000015	0.00000000	0.00000020
0.00000011	0.00000008	0.00000001	0.00000015
-0.00000018	-0.00000006	0.00000001	0.00000013
-0.00000004	0.00000004	0.00000001	0.00000012
0.00000008	0.00000005	0.00000001	0.00000011
0.00000002	-0.00000000	0.00000000	0.00000009
0.00000004	0.00000007	0.00000000	0.00000008
0.00000008	0.00000021	-0.00000000	0.00000008
0.00000009	0.00000010	-0.00000000	0.00000007
0.00000007	0.00000010	0.00000000	0.00000007
0.00000002	0.00000008	0.00000000	0.00000006
-0.00000003	-0.00000011	0.00000000	0.00000006
-0.00000005	0.00000010	0.00000000	0.00000005
-0.00000012	0.00000013	0.00000000	0.00000005
0.00000000	-0.00000016	-0.00000000	0.00000005
0.00000004	0.00000008	-0.00000000	0.00000004
0.00000011	0.00000023	0.00000000	0.00000004
0.00000005	0.00000017	0.00000000	0.00000004
0.00000001	0.00000010	0.00000000	0.00000004
0.00000003	0.00000003	0.00000000	0.00000004
0.00000002	0.00000012	0.00000000	0.00000004
0.00000027	0.00000010	0.00000000	0.00000003
0.00000028	0.00000012	0.00000000	0.00000003
0.00000006	-0.00000006	-0.00000000	0.00000003
0.00000008	-0.00000018	-0.00000000	0.00000003
0.00000011	0.00000000	-0.00000000	0.00000002
0.00000009	-0.00000003	0.00000000	0.00000003
-0.00000004	-0.00000003	-0.00000000	0.00000003
0.00000008	0.00000012	0.00000000	0.00000002
0.00000032	0.00000012	-0.00000000	0.00000003
-0.00000007	-0.00000006	-0.00000000	0.00000002
-0.00000011	0.00000004	0.00000000	0.00000002
0.00000013	0.00000015	0.00000000	0.00000003
-0.00000006	-0.00000007	0.00000001	0.00000002
0.00000005	0.00000012	0.00000000	0.00000002
0.00000013	0.00000013	0.00000001	0.00000002
0.00000003	0.00000004	0.00000001	0.00000002
0.00000011	0.00000018	0.00000000	0.00000002
-0.00000006	0.00000014	0.00000001	0.00000002
-0.00000011	-0.00000001	0.00000001	0.00000002
0.00000016	0.00000014	0.00000000	0.00000002
0.00000013	0.00000009	0.00000001	0.00000002
0.00000016	-0.00000003	0.00000000	0.00000002
0.00000012	-0.00000008	0.00000001	0.00000002
0.00000009	-0.00000004	0.00000000	0.00000002
0.00000013	-0.00000013	0.00000000	0.00000002
0.00000006	0.00000000	0.00000000	0.00000002
0.00000011	-0.00000001	0.00000000	0.00000002
0.00000000	-0.00000005	0.00000000	0.00000002
0.00000008	-0.00000001	0.00000000	0.00000002
0.00000007	0.00000008	0.00000000	0.00000002
-0.00000005	0.00000020	0.00000000	0.00000002
0.00000001	0.00000015	-0.00000000	0.00000002
0.00000014	0.00000004	-0.00000000	0.00000002
-0.00000017	0.00000007	-0.00000000	0.00000003
0.00000001	0.00000009	-0.00000001	0.00000002
0.00000013	-0.00000002	-0.00000000	0.00000002
0.00000009	0.00000001	-0.00000000	0.00000002
0.00000010	0.00000011	-0.00000001	0.00000002
0.00000010	0.00000004	-0.00000001	0.00000002
0.00000023	0.00000005	-0.00000001	0.00000002
0.00000006	0.00000001	-0.00000001	0.00000002
-0.00000002	-0.00000006	-0.00000001	0.00000001
-0.00000005	0.00000005	-0.00000001	0.00000001
-0.00000002	-0.00000004	-0.00000000	0.00000001
0.00000005	-0.00000023	0.00000000	0.00000001
-0.00000016	-0.00000016	0.00000000	0.00000002
-0.00000007	0.00000002	-0.00000001	0.00000002
-0.00000004	0.00000013	-0.00000002	0.00000002
-0.00000018	0.00000004	-0.00000002	0.00000001
-0.00000006	0.00000001	-0.00000002	-0.00000001
-0.00000013	0.00000010	-0.00000001	-0.00000001
-0.00000000	0.00000013	0.00000001	-0.00000001
-0.00000001	0.00000006	0.00000002	0.00000001
-0.00000000	0.00000016	0.00000001	0.00000002
0.00000012	0.00000026	0.00000000	0.00000002
0.00000002	0.00000015	-0.00000000	0.00000003
0.00000002	0.00000004	-0.00000001	0.00000002
0.00000023	0.00000008	-0.00000001	0.00000001
-0.00000003	-0.00000004	-0.00000001	0.00000001
0.00000004	0.00000006	-0.00000001	0.00000001
0.00000014	0.00000011	-0.00000000	0.00000001
-0.00000003	-0.00000023	-0.00000000	0.00000001
0.00000004	-0.00000003	-0.00000001	0.00000001
0.00000007	-0.00000000	-0.00000001	0.00000001
-0.00000006	-0.00000008	-0.00000001	0.00000001
0.00000008	-0.00000007	-0.00000000	0.00000001
0.00000012	-0.00000005	-0.00000000	0.00000001
0.00000002	-0.00000014	-0.00000000	0.00000001
-0.00000010	0.00000000	-0.00000001	0.00000001
-0.00000010	0.00000006	-0.00000001	0.00000001
0.00000006	-0.00000004	-0.00000001	0.00000001
0.00000012	-0.00000016	-0.00000001	0.00000001
0.00000014	0.00000003	-0.00000000	0.00000001
0.00000001	-0.00000001	-0.00000000	0.00000001
0.00000010	-0.00000009	-0.00000000	0.00000001
0.00000022	-0.00000008	-0.00000000	0.00000001
-0.00000005	-0.00000017	-0.00000000	0.00000001
-0.00000008	-0.00000002	-0.00000000	0.00000001
0.00000006	-0.00000006	-0.00000000	0.00000001
0.00000000	0.00000001	-0.00000001	0.00000001
-0.00000014	0.00000003	-0.00000001	0.00000001
-0.00000019	0.00000004	-0.00000000	0.00000001
-0.00000010	-0.00000001	-0.00000000	0.00000001
-0.00000008	0.00000006	-0.00000000	0.00000002
-0.00000002	-0.00000001	-0.00000001	0.00000002
-0.00000001	-0.00000008	-0.00000000	0.00000002
0.00000005	0.00000017	-0.00000000	0.00000002
0.00000016	0.00000017	-0.00000001	0.00000002
0.00000007	0.00000019	-0.00000001	0.00000002
0.00000004	-0.00000003	-0.00000002	0.00000002
0.00000011	-0.00000005	-0.00000002	0.00000002
-0.00000004	0.00000006	-0.00000003	0.00000001
-0.00000002	-0.00000002	-0.00000003	0.00000001
0.00000010	0.00000005	-0.00000003	0.00000000
-0.00000009	0.00000005	-0.00000003	0.00000000
-0.00000003	0.00000000	-0.00000003	0.00000000
-0.00000001	0.00000004	-0.00000003	-0.00000000
-0.00000004	-0.00000010	-0.00000002	-0.00000001
-0.00000003	-0.00000005	-0.00000003	-0.00000001
0.00000012	0.00000009	-0.00000002	-0.00000001
0.00000013	0.00000006	-0.00000002	-0.00000001
0.00000002	0.00000016	-0.00000002	-0.00000002
-0.00000003	0.00000019	-0.00000001	-0.00000001
-0.00000002	0.00000001	-0.00000001	-0.00000002
0.00000004	0.00000008	-0.00000001	-0.00000002
0.00000006	-0.00000000	-0.00000001	-0.00000002
-0.00000004	0.00000001	-0.00000000	-0.00000002
-0.00000008	0.00000009	-0.00000000	-0.00000001
0.00000008	-0.00000011	-0.00000000	-0.00000002
-0.00000001	0.00000009	-0.00000000	-0.00000001
-0.00000016	0.00000024	0.00000000	-0.00000001
-0.00000004	0.00000004	-0.00000000	-0.00000001
0.00000005	-0.00000003	-0.00000000	-0.00000001
-0.00000017	0.00000007	0.00000001	-0.00000001
-0.00000031	-0.00000003	0.00000000	-0.00000001
-0.00000014	-0.00000004	0.00000001	-0.00000001
0.00000001	0.00000001	0.00000001	-0.00000001
-0.00000005	-0.00000007	0.00000001	-0.00000001
-0.00000013	-0.00000001	0.00000000	-0.00000000
0.00000002	-0.00000002	0.00000000	-0.00000000
-0.00000004	-0.00000002	-0.00000000	-0.00000000
0.00000011	-0.00000006	0.00000001	-0.00000001
0.00000015	-0.00000005	0.00000000	-0.00000000
-0.00000002	-0.00000010	0.00000000	-0.00000000
0.00000006	0.00000001	0.00000000	-0.00000000
0.00000000	0.00000018	0.00000000	-0.00000000
-0.00000008	-0.00000002	0.00000000	-0.00000001
-0.00000003	0.00000003	-0.00000000	0.00000000
-0.00000010	0.00000001	-0.00000000	-0.00000000
-0.00000007	0.00000003	0.00000000	0.00000000
-0.00000002	-0.00000005	-0.00000000	-0.00000000
-0.00000017	-0.00000007	0.00000000	-0.00000000
0.00000007	0.00000009	0.00000000	-0.00000001
0.00000016	0.00000017	-0.00000000	-0.00000000
0.00000005	0.00000005	0.00000000	-0.00000000
0.00000001	0.00000011	0.00000000	-0.00000000
0.00000001	-0.00000005	0.00000000	-0.00000000
-0.00000001	0.00000001	0.00000000	-0.00000000
-0.00000009	-0.00000021	0.00000000	-0.00000000
-0.00000005	0.00000000	0.00000000	0.00000000
-0.00000004	0.00000013	0.00000000	-0.00000000
-0.00000003	-0.00000023	0.00000000	-0.00000000
0.00000005	-0.00000014	0.00000000	-0.00000001
-0.00000006	-0.00000002	0.00000000	0.00000000
0.00000000	0.00000000	-0.00000000	-0.00000000
0.00000006	0.00000006	0.00000000	0.00000000
-0.00000011	-0.00000002	-0.00000000	-0.00000001
-0.00000020	0.00000002	0.00000000	0.00000000
0.00000003	0.00000004	0.00000000	-0.00000000
0.00000008	-0.00000004	-0.00000000	-0.00000000
-0.00000005	-0.00000007	0.00000000	0.00000000
-0.00000009	-0.00000007	0.00000000	0.00000000
0.00000000	0.00000004	0.00000000	0.00000000
-0.00000002	0.00000006	0.00000000	-0.00000000
-0.00000020	0.00000013	0.00000000	0.00000000
0.00000004	0.00000004	0.00000000	-0.00000000
0.00000011	-0.00000009	0.00000000	0.00000000
-0.00000007	0.00000006	-0.00000000	0.00000000
-0.00000019	-0.00000004	0.00000000	-0.00000000
-0.00000002	0.00000001	0.00000000	0.00000000
0.00000001	0.00000004	-0.00000000	0.00000000
-0.00000003	-0.00000009	0.00000000	-0.00000000
0.00000007	0.00000017	0.00000000	-0.00000000
0.00000001	0.00000008	0.00000000	0.00000000
-0.00000003	0.00000006	0.00000000	-0.00000000
-0.00000004	0.00000007	0.00000000	-0.00000000
-0.00000008	-0.00000006	0.00000000	0.00000000
-0.00000008	0.00000004	-0.00000000	0.00000000
-0.00000006	0.00000010	-0.00000000	-0.00000000
-0.00000001	0.00000009	0.00000000	-0.00000000
0.00000004	-0.00000014	0.00000000	0.00000000
-0.00000014	-0.00000010	0.00000000	-0.00000000
-0.00000001	0.00000012	0.00000000	0.00000000
-0.00000007	0.00000001	0.00000000	-0.00000000
-0.00000015	-0.00000000	0.00000000	0.00000000
-0.00000012	0.00000014	-0.00000000	0.00000000
-0.00000011	-0.00000003	0.00000000	-0.00000000
-0.00000003	-0.00000006	0.00000000	-0.00000000
-0.00000015	0.00000008	0.00000000	0.00000000
-0.00000005	0.00000009	0.00000000	-0.00000000
-0.00000011	0.00000001	-0.00000000	0.00000000
-0.00000005	0.00000004	-0.00000000	0.00000000
-0.00000005	0.00000009	-0.00000000	-0.00000000
-0.00000010	0.00000006	-0.00000000	-0.00000000
0.00000009	-0.00000013	0.00000000	-0.00000000
-0.00000006	-0.00000011	0.00000000	0.00000000
-0.00000013	-0.00000008	-0.00000000	-0.00000000
-0.00000015	-0.00000001	0.00000000	-0.00000000
0.00000008	0.00000000	0.00000000	0.00000000
0.00000002	-0.00000002	0.00000001	-0.00000000
-0.00000007	0.00000001	0.00000000	-0.00000000
-0.00000006	-0.00000002	-0.00000000	-0.00000000
-0.00000007	-0.00000001	0.00000000	0.00000000
-0.00000019	-0.00000008	0.00000000	0.00000000
-0.00000021	-0.00000015	0.00000000	-0.00000000
-0.00000008	0.00000001	0.00000000	0.00000000
-0.00000013	0.00000001	0.00000000	-0.00000000
-0.00000029	-0.00000004	0.00000000	0.00000000
-0.00000017	0.00000004	-0.00000000	0.00000000
-0.00000019	0.00000003	0.00000000	-0.00000000
-0.00000005	-0.00000010	0.00000000	-0.00000000
-0.00000011	0.00000008	0.00000000	0.00000000
-0.00000012	0.00000011	0.00000000	0.00000000
-0.00000002	0.00000005	-0.00000000	-0.00000000
-0.00000014	0.00000002	-0.00000000	0.00000000
-0.00000014	-0.00000002	-0.00000000	-0.00000000
-0.00000022	-0.00000002	-0.00000000	-0.00000000
-0.00000001	-0.00000007	-0.00000000	-0.00000000
-0.00000001	0.00000005	-0.00000000	0.00000001
-0.00000005	-0.00000002	-0.00000000	0.00000000
-0.00000020	-0.00000005	-0.00000000	-0.00000000
-0.00000021	-0.00000011	0.00000000	-0.00000000
0.00000003	0.00000010	0.00000000	0.00000000
0.00000013	0.00000006	0.00000000	-0.00000000
-0.00000008	-0.00000011	-0.00000000	0.00000000
-0.00000009	-0.00000000	0.00000000	0.00000000
-0.00000012	-0.00000007	0.00000000	-0.00000000
-0.00000013	0.00000007	-0.00000000	-0.00000000
-0.00000015	-0.00000010	0.00000000	-0.00000000
-0.00000007	0.00000002	-0.00000000	-0.00000000
-0.00000008	0.00000010	0.00000000	-0.00000000
-0.00000015	-0.00000012	0.00000001	-0.00000000
-0.00000010	0.00000004	0.00000000	0.00000000
-0.00000008	0.00000011	0.00000000	0.00000000
-0.00000000	0.00000000	0.00000000	-0.00000000
-0.00000011	0.00000006	-0.00000000	-0.00000000
0.00000007	-0.00000015	0.00000000	0.00000000
0.00000010	-0.00000004	0.00000000	-0.00000000
0.00000000	0.00000010	0.00000000	-0.00000000
-0.00000002	-0.00000008	0.00000000	-0.00000000
-0.00000018	-0.00000028	-0.00000000	0.00000000
0.00000006	-0.00000022	0.00000000	0.00000000
-0.00000007	-0.00000014	-0.00000000	0.00000000
-0.00000006	-0.00000008	0.00000000	-0.00000000
-0.00000008	-0.00000001	0.00000000	-0.00000000
-0.00000022	0.00000002	0.00000000	-0.00000000
-0.00000009	-0.00000018	0.00000000	0.00000000
-0.00000010	-0.00000015	0.00000000	0.00000000
-0.00000011	0.00000007	0.00000000	0.00000000
-0.00000015	-0.00000018	0.00000000	-0.00000000
-0.00000009	-0.00000003	-0.00000000	0.00000000
0.00000001	-0.00000005	0.00000000	0.00000000
-0.00000016	0.00000004	0.00000001	-0.00000000
-0.00000002	0.00000008	0.00000000	0.00000000
-0.00000003	0.00000003	0.00000000	-0.00000000
-0.00000020	0.00000003	0.00000000	-0.00000000
-0.00000006	-0.00000012	0.00000000	-0.00000000
-0.00000020	0.00000002	-0.00000000	-0.00000000
-0.00000018	-0.00000002	0.00000000	-0.00000000
-0.00000022	-0.00000003	0.00000000	0.00000000
-0.00000015	0.00000004	-0.00000000	0.00000000
-0.00000022	0.00000003	0.00000000	0.00000000
-0.00000017	-0.00000010	0.00000000	-0.00000000
-0.00000026	-0.00000008	0.00000000	-0.00000000
-0.00000031	0.00000002	0.00000000	-0.00000000
-0.00000016	-0.00000012	0.00000000	0.00000000
-0.00000002	-0.00000007	-0.00000000	-0.00000000
-0.00000017	0.00000018	0.00000000	-0.00000000
-0.00000006	0.00000001	0.00000000	0.00000000
-0.00000005	0.00000000	0.00000000	-0.00000000
-0.00000012	0.00000006	0.00000000	0.00000000
-0.00000015	-0.00000006	0.00000000	0.00000000
-0.00000015	0.00000005	0.00000001	-0.00000000
-0.00000017	0.00000018	-0.00000000	-0.00000000
-0.00000017	0.00000001	-0.00000000	-0.00000000
-0.00000007	-0.00000009	0.00000000	-0.00000000
-0.00000005	0.00000014	0.00000000	0.00000000
-0.00000010	-0.00000010	0.00000000	-0.00000000
-0.00000010	0.00000008	-0.00000000	0.00000000
-0.00000007	0.00000022	-0.00000000	-0.00000000
-0.00000017	0.00000007	-0.00000000	-0.00000000
-0.00000012	0.00000006	-0.00000000	0.00000000
-0.00000014	-0.00000003	0.00000000	0.00000000
-0.00000021	-0.00000007	0.00000000	-0.00000000
-0.00000015	-0.00000001	0.00000000	-0.00000000
-0.00000007	0.00000001	0.00000000	-0.00000000
-0.00000006	-0.00000014	0.00000000	0.00000000
-0.00000003	-0.00000016	0.00000000	0.00000000
-0.00000021	0.00000003	0.00000000	0.00000000
-0.00000018	-0.00000015	0.00000000	-0.00000000
-0.00000022	-0.00000015	0.00000000	0.00000000
-0.00000024	-0.00000000	0.00000001	0.00000000
-0.00000006	-0.00000008	-0.00000000	0.00000000
-0.00000028	-0.00000001	0.00000000	0.00000000
-0.00000031	0.00000007	0.00000000	0.00000000
-0.00000021	-0.00000005	0.00000000	-0.00000000
-0.00000023	0.00000003	-0.00000000	0.00000000
0.00000001	-0.00000000	0.00000000	-0.00000000
-0.00000009	-0.00000013	-0.00000000	-0.00000000
-0.00000015	0.00000001	0.00000000	-0.00000000
-0.00000023	0.00000005	0.00000000	-0.00000000
-0.00000022	-0.00000005	0.00000000	-0.00000000
-0.00000027	-0.00000010	0.00000000	-0.00000000
-0.00000025	-0.00000007	-0.00000000	0.00000000
-0.00000012	0.00000011	-0.00000000	0.00000000
-0.00000022	-0.00000002	-0.00000000	0.00000000
-0.00000025	-0.00000021	0.00000000	0.00000000
-0.00000006	0.00000003	-0.00000000	0.00000000
-0.00000001	-0.00000011	-0.00000000	0.00000000
-0.00000022	-0.00000007	0.00000000	0.00000000
-0.00000025	0.00000017	0.00000000	0.00000000
-0.00000024	-0.00000003	0.00000001	0.00000000
-0.00000025	0.00000006	0.00000001	-0.00000000
-0.00000039	0.00000014	0.00000000	-0.00000000
-0.00000015	0.00000008	0.00000000	0.00000000
-0.00000005	0.00000022	0.00000000	0.00000000
-0.00000019	0.00000027	-0.00000000	-0.00000000
-0.00000022	0.00000006	0.00000000	-0.00000000
-0.00000021	-0.00000001	0.00000000	0.00000000
-0.00000007	0.00000003	-0.00000000	0.00000000
-0.00000017	-0.00000004	0.00000000	-0.00000000
-0.00000025	-0.00000001	-0.00000000	0.00000001
-0.00000010	-0.00000000	0.00000000	0.00000000
-0.00000005	0.00000003	0.00000000	0.00000000
-0.00000026	0.00000001	0.00000000	0.00000000
-0.00000020	-0.00000014	-0.00000000	0.00000000
-0.00000011	0.00000002	-0.00000000	0.00000000
-0.00000015	0.00000006	0.00000000	0.00000000
-0.00000023	0.00000008	-0.00000000	0.00000000
-0.00000023	0.00000021	0.00000000	-0.00000000
-0.00000003	0.00000007	0.00000000	-0.00000000
-0.00000015	-0.00000009	0.00000000	-0.00000000
-0.00000024	0.00000012	-0.00000000	0.00000000
-0.00000014	0.00000003	-0.00000000	0.00000000
-0.00000009	-0.00000009	0.00000000	-0.00000000
-0.00000028	-0.00000005	0.00000000	-0.00000001
-0.00000016	-0.00000007	-0.00000000	-0.00000000
-0.00000008	-0.00000005	0.00000000	-0.00000000
-0.00000030	-0.00000004	0.00000000	-0.00000000
-0.00000023	0.00000002	0.00000000	-0.00000000
-0.00000014	-0.00000010	0.00000000	0.00000000
-0.00000018	0.00000006	0.00000000	0.00000000
-0.00000027	-0.00000001	0.00000000	0.00000000
-0.00000016	0.00000001	0.00000000	0.00000000
-0.00000009	-0.00000002	0.00000000	-0.00000000
-0.00000016	-0.00000008	0.00000000	0.00000000
-0.00000013	0.00000008	0.00000000	0.00000000
-0.00000017	0.00000009	0.00000000	0.00000000
-0.00000019	0.00000007	-0.00000000	0.00000000
-0.00000008	0.00000005	-0.00000000	-0.00000000
-0.00000031	0.00000006	0.00000000	-0.00000000
-0.00000025	0.00000003	0.00000000	0.00000000
-0.00000021	0.00000006	0.00000000	0.00000000
-0.00000009	-0.00000007	0.00000000	-0.00000000
-0.00000013	-0.00000006	-0.00000000	-0.00000000
-0.00000028	-0.00000016	0.00000000	-0.00000000
0.00000000	-0.00000009	-0.00000000	-0.00000000
-0.00000005	0.00000009	0.00000000	-0.00000000
-0.00000020	-0.00000011	0.00000000	0.00000000
-0.00000017	-0.00000008	-0.00000000	0.00000000
-0.00000026	0.00000011	-0.00000000	-0.00000000
-0.00000013	-0.00000004	0.00000000	-0.00000000
-0.00000031	0.00000007	0.00000000	0.00000000
-0.00000028	0.00000004	0.00000000	0.00000000
-0.00000017	-0.00000021	0.00000000	-0.00000000
-0.00000003	-0.00000012	0.00000000	-0.00000000
-0.00000016	0.00000011	0.00000000	0.00000000
-0.00000029	-0.00000005	0.00000000	-0.00000000
-0.00000024	-0.00000014	0.00000000	-0.00000000
-0.00000003	0.00000014	0.00000000	-0.00000000
-0.00000013	0.00000009	-0.00000000	-0.00000000
-0.00000011	-0.00000013	0.00000000	0.00000000
-0.00000005	-0.00000015	0.00000001	0.00000000
0.00000002	0.00000001	0.00000000	0.00000000
-0.00000007	-0.00000004	0.00000000	0.00000000
-0.00000036	-0.00000002	0.00000000	-0.00000000
-0.00000023	0.00000011	0.00000000	0.00000000
-0.00000007	-0.00000004	0.00000000	-0.00000000
-0.00000026	-0.00000038	-0.00000000	-0.00000000
-0.00000028	-0.00000018	-0.00000000	0.00000001
-0.00000007	0.00000000	0.00000001	-0.00000000
-0.00000009	0.00000001	-0.00000000	0.00000000
-0.00000018	-0.00000005	0.00000000	0.00000000
-0.00000004	0.00000007	0.00000000	-0.00000000
-0.00000012	0.00000008	-0.00000000	-0.00000000
-0.00000011	-0.00000004	0.00000000	0.00000000
-0.00000008	-0.00000006	0.00000000	-0.00000000
-0.00000009	0.00000010	-0.00000000	0.00000000
-0.00000009	0.00000012	0.00000000	-0.00000000
-0.00000021	0.00000008	-0.00000000	0.00000000
-0.00000009	0.00000005	0.00000000	-0.00000000
-0.00000015	-0.00000002	-0.00000000	0.00000000
-0.00000007	-0.00000008	0.00000000	0.00000000
0.00000010	-0.00000001	0.00000000	0.00000000
-0.00000000	0.00000008	-0.00000000	0.00000000
-0.00000006	0.00000010	0.00000000	-0.00000000
-0.00000019	-0.00000011	0.00000000	-0.00000000
-0.00000011	-0.00000005	0.00000000	-0.00000000
-0.00000005	-0.00000000	0.00000000	0.00000000
-0.00000014	0.00000000	0.00000000	0.00000000
-0.00000013	-0.00000023	0.00000000	-0.00000000
-0.00000015	-0.00000009	0.00000000	0.00000000
-0.00000010	0.00000008	-0.00000000	0.00000000
-0.00000019	0.00000009	-0.00000000	-0.00000000
-0.00000011	0.00000018	0.00000000	-0.00000000
-0.00000016	-0.00000011	0.00000000	-0.00000000
-0.00000015	-0.00000001	0.00000000	-0.00000000
-0.00000010	0.00000000	0.00000000	-0.00000000
-0.00000014	0.00000005	0.00000000	0.00000000
-0.00000028	0.00000006	0.00000000	-0.00000000
-0.00000031	-0.00000006	-0.00000000	-0.00000000
-0.00000019	0.00000012	-0.00000000	0.00000000
-0.00000014	0.00000010	-0.00000000	-0.00000000
-0.00000018	0.00000010	-0.00000000	-0.00000000
-0.00000004	0.00000010	0.00000000	0.00000000
0.00000006	0.00000013	0.00000000	0.00000000
-0.00000013	0.00000002	-0.00000000	-0.00000000
-0.00000015	0.00000012	0.00000000	0.00000000
-0.00000013	0.00000009	0.00000000	0.00000000
-0.00000028	0.00000013	-0.00000000	-0.00000000
-0.00000014	0.00000015	0.00000001	0.00000000
-0.00000007	0.00000015	0.00000001	0.00000000
-0.00000014	0.00000011	0.00000000	0.00000000
-0.00000013	0.00000017	0.00000000	-0.00000000
0.00000010	0.00000003	0.00000000	0.00000000
-0.00000000	-0.00000005	0.00000001	-0.00000000
-0.00000013	0.00000015	0.00000001	0.00000000
-0.00000006	-0.00000000	0.00000000	0.00000000
-0.00000013	0.00000009	-0.00000000	-0.00000000
-0.00000008	0.00000012	0.00000000	-0.00000000
-0.00000015	0.00000006	0.00000000	-0.00000000
-0.00000002	0.00000018	0.00000000	-0.00000000
-0.00000008	0.00000007	-0.00000000	-0.00000000
-0.00000010	0.00000008	0.00000000	-0.00000000
-0.00000008	0.00000013	-0.00000000	0.00000000
-0.00000013	0.00000008	0.00000000	-0.00000000
-0.00000022	0.00000004	-0.00000000	-0.00000000
-0.00000003	-0.00000006	0.00000000	0.00000000
-0.00000011	-0.00000010	0.00000000	0.00000000
-0.00000016	-0.00000019	0.00000000	-0.00000001
-0.00000003	-0.00000009	0.00000000	0.00000000
-0.00000005	0.00000006	-0.00000000	-0.00000000
-0.00000013	0.00000000	-0.00000000	-0.00000000
-0.00000009	-0.00000014	0.00000000	0.00000000
-0.00000015	0.00000008	0.00000000	-0.00000000
-0.00000010	-0.00000002	0.00000000	0.00000000
-0.00000011	-0.00000007	-0.00000000	-0.00000000
-0.00000019	0.00000004	-0.00000000	-0.00000000
0.00000002	0.00000019	-0.00000000	0.00000000
-0.00000019	0.00000002	-0.00000000	0.00000000
-0.00000013	-0.00000004	-0.00000000	0.00000000
-0.00000015	0.00000009	0.00000000	0.00000000
-0.00000023	-0.00000003	0.00000000	-0.00000000
-0.00000012	0.00000006	0.00000000	0.00000000
-0.00000016	-0.00000001	0.00000000	-0.00000000
-0.00000013	-0.00000007	0.00000000	-0.00000000
-0.00000016	0.00000006	-0.00000000	0.00000000
0.00000004	-0.00000006	-0.00000000	0.00000000
-0.00000008	-0.00000003	0.00000000	0.00000000
-0.00000021	0.00000003	-0.00000000	-0.00000000
-0.00000019	0.00000010	-0.00000000	-0.00000000
-0.00000025	0.00000006	0.00000000	-0.00000000
-0.00000029	-0.00000003	0.00000000	0.00000000
-0.00000003	0.00000010	0.00000000	0.00000000
-0.00000007	-0.00000000	0.00000000	-0.00000000
-0.00000016	0.00000006	0.00000000	-0.00000000
-0.00000017	0.00000006	-0.00000000	-0.00000000
-0.00000017	0.00000024	-0.00000000	-0.00000000
-0.00000014	0.00000010	-0.00000000	0.00000000
-0.00000005	0.00000005	0.00000000	0.00000000
-0.00000001	0.00000012	-0.00000000	0.00000000
-0.00000003	0.00000017	-0.00000000	0.00000000
-0.00000002	-0.00000003	0.00000000	-0.00000000
-0.00000010	0.00000005	0.00000000	0.00000000
-0.00000008	0.00000009	0.00000000	0.00000000
-0.00000020	0.00000004	0.00000000	0.00000000
-0.00000003	-0.00000000	-0.00000000	0.00000000
0.00000014	-0.00000008	0.00000000	0.00000000
-0.00000012	0.00000004	0.00000000	-0.00000000
-0.00000025	-0.00000010	0.00000000	-0.00000000
-0.00000012	-0.00000007	-0.00000000	-0.00000000
-0.00000004	0.00000010	0.00000000	0.00000000
0.00000001	0.00000019	0.00000000	-0.00000000
-0.00000003	-0.00000007	0.00000000	0.00000000
-0.00000013	-0.00000005	0.00000000	-0.00000000
0.00000001	0.00000008	0.00000000	-0.00000000
-0.00000003	0.00000001	0.00000000	0.00000000
-0.00000014	-0.00000005	0.00000000	-0.00000000
-0.00000014	0.00000008	-0.00000000	-0.00000000
-0.00000017	0.00000017	0.00000000	0.00000000
-0.00000006	-0.00000002	0.00000000	0.00000000
0.00000003	-0.00000007	-0.00000000	0.00000000
0.00000005	0.00000001	0.00000000	-0.00000000
-0.00000005	0.00000015	0.00000000	-0.00000000
-0.00000009	0.00000004	-0.00000000	0.00000000
-0.00000011	-0.00000016	0.00000000	-0.00000000
-0.00000007	-0.00000007	-0.00000000	-0.00000000
-0.00000002	0.00000008	0.00000000	-0.00000000
-0.00000001	0.00000001	0.00000000	0.00000000
-0.00000002	0.00000004	-0.00000000	-0.00000000
-0.00000012	-0.00000002	0.00000000	-0.00000000
-0.00000007	-0.00000006	0.00000000	-0.00000000
-0.00000016	-0.00000007	-0.00000000	-0.00000000
-0.00000019	-0.00000003	-0.00000000	0.00000000
0.00000000	0.00000001	-0.00000000	0.00000000
-0.00000010	-0.00000008	-0.00000000	-0.00000000
-0.00000020	-0.00000012	0.00000000	0.00000000
-0.00000014	-0.00000000	-0.00000000	-0.00000000
-0.00000009	0.00000008	0.00000000	0.00000000
-0.00000005	0.00000002	0.00000000	0.00000000
-0.00000012	0.00000005	0.00000000	0.00000000
0.00000001	0.00000001	0.00000000	-0.00000000
-0.00000013	0.00000019	0.00000000	-0.00000000
-0.00000016	-0.00000004	-0.00000000	0.00000000
-0.00000010	-0.00000009	0.00000000	-0.00000000
-0.00000004	0.00000007	0.00000000	0.00000000
0.00000004	-0.00000002	-0.00000000	-0.00000000
-0.00000001	-0.00000008	0.00000000	-0.00000000
-0.00000009	0.00000008	0.00000000	0.00000000
-0.00000005	0.00000012	0.00000000	-0.00000000
-0.00000000	0.00000015	-0.00000000	0.00000000
-0.00000004	0.00000007	-0.00000000	-0.00000000
-0.00000007	-0.00000000	-0.00000000	-0.00000000
-0.00000004	0.00000008	0.00000000	0.00000000
-0.00000003	0.00000007	-0.00000000	-0.00000000
-0.00000013	-0.00000006	0.00000000	-0.00000000
-0.00000020	-0.00000003	-0.00000000	0.00000000
-0.00000014	-0.00000002	0.00000000	0.00000000
-0.00000015	0.00000008	0.00000000	-0.00000000
-0.00000013	0.00000003	0.00000000	0.00000000
0.00000001	-0.00000010	0.00000000	0.00000000
0.00000008	0.00000014	0.00000000	0.00000000
-0.00000007	0.00000011	0.00000000	-0.00000000
-0.00000017	-0.00000009	-0.00000000	0.00000000
-0.00000001	0.00000003	0.00000000	-0.00000000
0.00000008	-0.00000004	-0.00000000	-0.00000000
-0.00000002	-0.00000013	0.00000000	0.00000000
-0.00000004	0.00000008	-0.00000000	0.00000000
0.00000006	0.00000011	0.00000000	0.00000000
0.00000003	-0.00000013	0.00000000	-0.00000000
-0.00000008	-0.00000004	0.00000000	-0.00000000
0.00000004	0.00000006	0.00000000	-0.00000000
0.00000002	-0.00000001	0.00000000	0.00000000
-0.00000009	0.00000001	-0.00000000	0.00000000
-0.00000013	-0.00000002	-0.00000000	-0.00000000
0.00000008	-0.00000011	0.00000000	-0.00000000
-0.00000016	-0.00000007	-0.00000000	0.00000000
-0.00000012	-0.00000021	0.00000000	-0.00000000
0.00000012	-0.00000020	0.00000000	-0.00000000
-0.00000006	-0.00000007	0.00000000	-0.00000000
-0.00000020	-0.00000013	-0.00000000	0.00000000
-0.00000010	-0.00000002	-0.00000000	0.00000000
-0.00000016	-0.00000000	0.00000000	0.00000000
-0.00000015	0.00000016	0.00000000	-0.00000000
-0.00000005	0.00000011	-0.00000000	-0.00000000
-0.00000006	0.00000008	-0.00000000	-0.00000000
-0.00000004	0.00000032	0.00000000	-0.00000000
0.00000019	0.00000012	0.00000000	-0.00000000
-0.00000000	0.00000000	0.00000000	-0.00000000
-0.00000013	0.00000013	0.00000000	-0.00000000
-0.00000019	-0.00000008	0.00000000	-0.00000000
-0.00000005	-0.00000013	-0.00000000	-0.00000000
-0.00000004	-0.00000010	-0.00000000	0.00000000
-0.00000008	-0.00000006	0.00000000	-0.00000000
-0.00000005	0.00000000	0.00000000	-0.00000000
-0.00000007	0.00000003	0.00000000	-0.00000000
0.00000003	-0.00000002	0.00000000	-0.00000000
-0.00000002	-0.00000009	-0.00000000	-0.00000000
-0.00000014	0.00000001	0.00000000	0.00000000
-0.00000010	0.00000007	0.00000000	-0.00000000
-0.00000007	0.00000001	0.00000000	0.00000000
-0.00000010	0.00000002	-0.00000000	0.00000000
-0.00000017	0.00000017	-0.00000000	0.00000000
-0.00000013	0.00000008	0.00000000	0.00000000
0.00000006	0.00000015	0.00000000	-0.00000000
-0.00000002	0.00000027	0.00000000	-0.00000000
-0.00000008	0.00000009	0.00000000	-0.00000000
-0.00000008	-0.00000003	0.00000000	0.00000000
-0.00000004	0.00000022	0.00000000	-0.00000000
0.00000002	0.00000015	0.00000000	-0.00000000
-0.00000012	0.00000001	0.00000000	-0.00000000
-0.00000005	0.00000005	0.00000000	0.00000000
0.00000005	0.00000010	-0.00000000	-0.00000000
0.00000000	0.00000004	0.00000000	-0.00000000
0.00000007	-0.00000006	0.00000000	-0.00000000
-0.00000005	-0.00000010	0.00000000	0.00000000
0.00000008	-0.00000004	-0.00000000	-0.00000000
-0.00000006	0.00000002	0.00000000	-0.00000000
0.00000002	-0.00000007	0.00000000	0.00000000
0.00000006	-0.00000001	0.00000000	-0.00000000
-0.00000011	0.00000004	0.00000000	-0.00000000
-0.00000019	-0.00000010	0.00000000	-0.00000000
0.00000001	0.00000011	0.00000000	-0.00000000
-0.00000006	0.00000007	0.00000000	0.00000000
-0.00000015	-0.00000008	0.00000000	0.00000000
0.00000010	0.00000007	0.00000000	-0.00000000
0.00000007	0.00000005	-0.00000000	-0.00000000
-0.00000006	0.00000006	0.00000000	0.00000000
-0.00000005	0.00000023	-0.00000000	-0.00000000
0.00000010	0.00000015	-0.00000000	0.00000000
0.00000003	-0.00000001	0.00000000	-0.00000000
-0.00000010	0.00000002	-0.00000000	-0.00000000
-0.00000005	-0.00000008	-0.00000000	-0.00000000
-0.00000018	-0.00000014	0.00000000	0.00000000
-0.00000002	-0.00000004	0.00000000	0.00000000
-0.00000002	-0.00000002	0.00000000	0.00000000
0.00000002	0.00000014	0.00000000	0.00000000
-0.00000003	0.00000004	0.00000000	-0.00000000
-0.00000013	-0.00000021	0.00000000	0.00000000
-0.00000005	-0.00000010	-0.00000000	-0.00000000
0.00000007	-0.00000005	0.00000000	0.00000000
0.00000003	-0.00000005	0.00000000	-0.00000000
0.00000004	0.00000010	0.00000000	-0.00000000
-0.00000005	0.00000010	0.00000000	0.00000000
0.00000017	-0.00000009	-0.00000000	0.00000000
0.00000012	-0.00000001	0.00000000	0.00000000
0.00000001	0.00000013	0.00000000	0.00000000
0.00000004	-0.00000014	0.00000000	-0.00000000
0.00000002	-0.00000009	0.00000000	-0.00000000
0.00000005	0.00000004	0.00000000	0.00000000
0.00000004	0.00000005	0.00000000	0.00000000
0.00000015	0.00000000	-0.00000000	-0.00000000
0.00000014	0.00000002	-0.00000000	-0.00000000
-0.00000011	0.00000002	0.00000000	0.00000000
-0.00000001	0.00000003	0.00000000	-0.00000000
-0.00000005	-0.00000006	-0.00000000	0.00000000
-0.00000009	0.00000011	0.00000000	-0.00000000
0.00000007	0.00000001	-0.00000000	0.00000000
0.00000009	-0.00000016	0.00000000	-0.00000000
-0.00000009	0.00000000	-0.00000000	0.00000000
0.00000005	0.00000007	0.00000000	0.00000000
0.00000002	-0.00000004	0.00000000	-0.00000000
-0.00000001	0.00000010	-0.00000000	-0.00000000
0.00000009	0.00000007	0.00000000	-0.00000000
-0.00000003	-0.00000001	-0.00000000	0.00000000
0.00000000	0.00000010	-0.00000000	-0.00000000
0.00000004	-0.00000002	0.00000000	-0.00000000
-0.00000004	-0.00000013	0.00000000	0.00000000
0.00000002	-0.00000003	-0.00000000	0.00000000
-0.00000001	0.00000010	0.00000000	0.00000000
0.00000014	-0.00000006	-0.00000000	-0.00000000
0.00000020	-0.00000008	0.00000000	0.00000000
-0.00000006	-0.00000012	0.00000000	-0.00000000
0.00000007	0.00000003	0.00000000	0.00000000
0.00000009	0.00000007	0.00000000	0.00000000
-0.00000009	-0.00000008	0.00000000	-0.00000000
-0.00000012	-0.00000016	0.00000000	-0.00000000
0.00000017	-0.00000011	-0.00000000	0.00000000
0.00000014	-0.00000012	0.00000000	-0.00000000
-0.00000027	-0.00000006	0.00000000	-0.00000000
-0.00000012	-0.00000005	0.00000000	-0.00000000
0.00000002	-0.00000015	-0.00000000	0.00000000
-0.00000009	-0.00000006	-0.00000000	-0.00000000
-0.00000009	0.00000004	-0.00000000	0.00000000
0.00000003	-0.00000007	0.00000000	-0.00000000
-0.00000001	-0.00000004	0.00000000	0.00000000
0.00000000	-0.00000001	0.00000000	-0.00000000
0.00000001	0.00000010	-0.00000000	-0.00000000
0.00000003	-0.00000007	0.00000000	-0.00000000
0.00000016	-0.00000006	-0.00000000	-0.00000000
0.00000010	-0.00000008	0.00000000	-0.00000000
0.00000001	-0.00000016	0.00000000	0.00000000
-0.00000002	0.00000007	0.00000000	-0.00000000
-0.00000010	0.00000004	0.00000000	0.00000000
-0.00000010	-0.00000004	-0.00000000	0.00000000
0.00000007	0.00000019	-0.00000000	-0.00000000
-0.00000001	-0.00000004	-0.00000000	0.00000000
0.00000002	0.00000007	0.00000000	0.00000000
0.00000029	-0.00000005	0.00000000	-0.00000000
-0.00000006	-0.00000011	0.00000000	-0.00000000
-0.00000023	-0.00000002	0.00000000	0.00000000
-0.00000001	-0.00000005	0.00000000	-0.00000000
0.00000015	-0.00000004	0.00000000	-0.00000000
-0.00000011	0.00000001	0.00000000	-0.00000000
0.00000007	-0.00000006	0.00000000	0.00000000
0.00000011	-0.00000007	0.00000000	0.00000000
0.00000009	0.00000006	0.00000000	-0.00000000
0.00000007	-0.00000011	0.00000000	0.00000000
-0.00000006	-0.00000008	-0.00000000	-0.00000000
0.00000007	-0.00000014	-0.00000000	-0.00000000
0.00000008	-0.00000027	-0.00000000	-0.00000000
0.00000002	-0.00000016	-0.00000000	-0.00000000
-0.00000000	-0.00000010	0.00000000	0.00000000
0.00000020	-0.00000011	-0.00000000	-0.00000000
0.00000008	-0.00000013	0.00000000	-0.00000000
0.00000009	-0.00000016	0.00000000	0.00000000
0.00000006	-0.00000017	0.00000000	0.00000000
0.00000003	-0.00000021	-0.00000000	0.00000000
0.00000008	-0.00000001	0.00000000	-0.00000000
-0.00000006	-0.00000007	0.00000000	-0.00000000
-0.00000013	-0.00000000	-0.00000000	0.00000000
-0.00000013	0.00000001	-0.00000000	0.00000000
-0.00000001	0.00000002	0.00000000	-0.00000000
0.00000003	0.00000010	0.00000000	0.00000000
-0.00000005	0.00000005	-0.00000000	0.00000000
-0.00000005	-0.00000007	-0.00000000	-0.00000000
-0.00000003	-0.00000012	0.00000000	-0.00000000
0.00000018	0.00000005	-0.00000000	0.00000000
0.00000010	-0.00000015	0.00000000	0.00000000
0.00000011	0.00000004	0.00000000	-0.00000000
0.00000011	0.00000018	0.00000000	-0.00000000
-0.00000000	0.00000001	0.00000000	0.00000000
-0.00000004	0.00000012	0.00000000	0.00000000
0.00000016	0.00000009	0.00000000	0.00000000
0.00000001	0.00000007	0.00000000	-0.00000000
0.00000017	-0.00000003	-0.00000000	0.00000000
0.00000021	-0.00000002	0.00000000	0.00000000
-0.00000006	0.00000019	0.00000000	-0.00000000
0.00000010	0.00000010	0.00000000	-0.00000000
-0.00000001	-0.00000015	0.00000000	0.00000000
0.00000008	-0.00000010	0.00000000	-0.00000000
0.00000030	-0.00000004	0.00000000	-0.00000000
0.00000017	-0.00000000	0.00000000	-0.00000000
0.00000005	-0.00000003	-0.00000000	0.00000000
0.00000001	-0.00000007	0.00000000	-0.00000000
-0.00000002	0.00000009	0.00000000	0.00000000
0.00000016	0.00000011	0.00000000	-0.00000000
0.00000031	-0.00000006	-0.00000000	0.00000000
0.00000011	0.00000002	-0.00000000	-0.00000000
-0.00000002	-0.00000004	0.00000000	0.00000000
0.00000001	-0.00000010	0.00000000	0.00000000
-0.00000009	0.00000001	0.00000000	0.00000000
0.00000003	-0.00000007	0.00000000	0.00000000
0.00000015	0.00000004	0.00000000	-0.00000000
-0.00000002	-0.00000006	0.00000000	-0.00000000
0.00000010	-0.00000008	-0.00000000	-0.00000000
-0.00000000	0.00000003	0.00000000	0.00000000
0.00000008	-0.00000009	0.00000000	0.00000000
0.00000015	-0.00000023	-0.00000000	0.00000000
-0.00000005	-0.00000005	-0.00000000	0.00000000
-0.00000001	-0.00000005	-0.00000000	0.00000000
-0.00000000	-0.00000011	-0.00000000	0.00000000
-0.00000023	-0.00000022	0.00000000	0.00000000
0.00000004	-0.00000014	0.00000000	-0.00000000
0.00000017	-0.00000005	0.00000000	-0.00000000
0.00000004	0.00000008	-0.00000000	0.00000000
0.00000007	0.00000009	0.00000000	-0.00000000
0.00000013	0.00000004	0.00000000	0.00000000
-0.00000002	-0.00000002	0.00000000	-0.00000000
-0.00000003	0.00000016	-0.00000000	-0.00000000
0.00000009	0.00000017	0.00000000	0.00000000
0.00000000	-0.00000002	0.00000000	-0.00000000
0.00000015	-0.00000007	0.00000000	-0.00000000
